{"addr": "", "userid": 835224320, "long": -74.0064, "content": "Had an accident on Wednesday so I am on crutches and have stitches on my ankle. Need to heal fast\u2026 https://t.co/3QoPX3cqyX\r", "time": "2015-12-05T15:04:03", "lat": 40.7142, "id": 811987}
{"addr": "Syracuse", "userid": 250330008, "long": -76.56808, "content": "Closed due to accident in #Weedsport on I-90 EB from Rte 34 to I-690 #traffic https://t.co/MBQubGTSI5\r", "time": "2016-01-19T15:59:51", "lat": 43.06034, "id": 286854}
{"addr": "Buffalo", "userid": 250320973, "long": -78.60609, "content": "Closed due to accident in #Elma on Girdle Rd Both NB/SB between Woodard Rd and Chairfactory Rd #traffic https://t.co/fKnuCfRaUd\r", "time": "2015-12-10T11:31:53", "lat": 42.83749, "id": 732984}
{"addr": "New York", "userid": 23214781, "long": -74.0059731, "content": "We're #hiring! Click to apply: Global Personal Accident - Business Analytics Analyst - https://t.co/4kFCCvIBVb #Underwriting #NewYork  NY\r", "time": "2015-12-08T22:29:57", "lat": 40.7143528, "id": 770613}
{"addr": "", "userid": 42640432, "long": -74.0169, "content": "Closed due to accident in #Bklyn:OnTheGowanusExpwy on I-278 WB between 6th Ave and 86th St  stopped traffic back to 39th St #traffic\r", "time": "2016-01-07T12:06:00", "lat": 40.6353, "id": 410920}
{"addr": "", "userid": 42640432, "long": -73.95467, "content": "Closed due to accident in #NewYork on E 70th St EB at York Ave #traffic https://t.co/cLJ9IKJQWV\r", "time": "2016-01-05T01:43:37", "lat": 40.76558, "id": 432909}
{"addr": "", "userid": 42640432, "long": -73.83325, "content": "Closed due to accident in #TheBronx:OnTheNewEnglandThruway on I-95 NB between Baychester Ave and Conner St  stopp... https://t.co/cLJ9IKsg5n\r", "time": "2016-01-27T00:36:25", "lat": 40.86995, "id": 174285}
{"addr": "", "userid": 54079107, "long": -73.9217377, "content": "#winespill on my last drawing. a happy accident \ud83d\ude00\ud83d\udc4d\ud83c\udffd\ud83e\udd13\ud83d\ude0d #drinkanddraw @ Bat Haus Coworking Space https://t.co/LTp9EBarRo\r", "time": "2016-01-21T03:22:09", "lat": 40.7068214, "id": 262873}
{"addr": "", "userid": 42640432, "long": -73.93959, "content": "Closed due to accident in #AreaOfHudsonRiverCrossingsGwbUpperUnderTheApartments on The G.W.B. Upper Level NB betw... https://t.co/cLJ9IKJQWV\r", "time": "2015-12-12T05:33:46", "lat": 40.84915, "id": 699050}
