{"addr": "", "userid": 42640432, "long": -73.82528, "content": "Accident  right lane blocked in #Queens:OnTheWhitestoneExpwy on I-678 SB at 20th Ave  stop and go traffic back to 14th Ave  delay of 1 min\r", "time": "2015-12-21T23:07:22", "lat": 40.7817, "id": 632950}
{"addr": "", "userid": 42640432, "long": -73.86446, "content": "Accident cleared in #Queens on The L.I.E. EB at x20  stop and go traffic back to X17  delay of 5 mins #traffic https://t.co/cLJ9IKJQWV\r", "time": "2015-12-22T23:51:27", "lat": 40.73394, "id": 620363}
{"addr": "", "userid": 42640432, "long": -73.93725, "content": "Accident  right lane blocked in #Bklyn on Belt Pkwy EB at Knapp St  stop and go traffic back to Coney Island Ave  delay of 2 mins #traffic\r", "time": "2015-12-11T10:52:56", "lat": 40.58595, "id": 717130}
{"addr": "", "userid": 42640432, "long": -73.81052, "content": "Accident  right lane blocked in #Yorktown on Taconic State Pkwy SB north of Rt-134  stop and go traffic back to Underhill Ave #traffic\r", "time": "2016-01-06T10:51:57", "lat": 41.21441, "id": 423476}
{"addr": "", "userid": 42640432, "long": -73.98406, "content": "Accident in #Nyc:OnTheWestSideHwy on NY RT-9A NB between 79th St  stopped traffic back to 56th  delay of 12 mins #traffic\r", "time": "2015-12-15T23:49:18", "lat": 40.78556, "id": 679649}
{"addr": "", "userid": 42640432, "long": -73.88758, "content": "Reopened in #TheBronx:OnTheDeeganExpwy on I-87 NB at Mosholu Pkwy  stop and go traffic back to Cross Bronx  delay of 8 mins #traffic\r", "time": "2015-12-24T19:03:30", "lat": 40.88969, "id": 591149}
{"addr": "", "userid": 42640432, "long": -73.94383, "content": "Accident cleared in #Nyc on The FDR Dr NB between 96th St  stop and go traffic back to 61st St  delay of 3 mins #traffic\r", "time": "2015-12-24T21:31:36", "lat": 40.78285, "id": 593166}
{"addr": "", "userid": 105534906, "long": -73.9804777, "content": "We finally made it after an hour of traffic and biggie \ud83d\ude02\ud83d\udc19\ud83d\udc81 #mariahcareychristmas #beacon\u2026 https://t.co/wk5HdgaWdm\r", "time": "2015-12-18T00:21:23", "lat": 40.7805523, "id": 639890}
{"addr": "", "userid": 42640432, "long": -73.87385, "content": "Disabled vehicle  right lane blocked in #TheBronx on The Bronx River Pkwy SB at I-95  stop and go traffic back to Pelham Pkwy #traffic\r", "time": "2016-01-31T22:08:24", "lat": 40.83631, "id": 130063}
{"addr": "", "userid": 1671213896, "long": -73.98358535, "content": "I'm walking fast through the traffic lights. Busy streets and busy lives and all we know is\u2026 https://t.co/h68HZKgHry\r", "time": "2016-01-27T00:33:13", "lat": 40.77244748, "id": 174243}
{"addr": "", "userid": 42640432, "long": -73.92681, "content": "Off-ramp blocked in #Bronx on I-87 NB at Cross Bronx  stopped traffic back to The Bruckner Expwy  delay of 37 mins #traffic\r", "time": "2015-12-10T13:48:17", "lat": 40.84502, "id": 6130}
{"addr": "", "userid": 42640432, "long": -73.8136, "content": "Accident  center lane blocked in #Queens:OnTheVanWyckExpwy on I-678 SB at Atlantic Ave  stop and go traffic back to Jamaica Ave #traffic\r", "time": "2015-12-13T19:20:17", "lat": 40.69719, "id": 692151}
{"addr": "", "userid": 42640432, "long": -74.04213, "content": "Accident  right lane blocked in #NorthBergen on Rt 1-9 NB at Rt-3  stop and go traffic back to Secaucus Rd  delay of 2 mins #traffic\r", "time": "2016-01-12T18:40:30", "lat": 40.77258, "id": 352407}
{"addr": "", "userid": 42640432, "long": -73.99219, "content": "Accident  two lanes blocked in #Bklyn:OnTheB.q.e. on I-278 EB approaching Cadman Plz  stop and go traffic back to Hamilton Ave #traffic\r", "time": "2016-01-12T01:05:49", "lat": 40.70169, "id": 344925}
{"addr": "", "userid": 42640432, "long": -73.85198, "content": "Road cleared in #Queens on The L.I.E. WB at x21  stop and go traffic back to X25  delay of 7 mins #traffic https://t.co/cLJ9IKJQWV\r", "time": "2016-01-12T20:04:14", "lat": 40.73739, "id": 353502}
{"addr": "", "userid": 42640432, "long": -73.9911, "content": "Accident  left lane blocked in #Bklyn:OnTheBqe on I-278 WB at The Brooklyn Brg  stop and go traffic back to Wythe Ave  delay of 4 mins\r", "time": "2016-01-04T19:41:37", "lat": 40.70164, "id": 451747}
{"addr": "", "userid": 42640432, "long": -73.93725, "content": "Accident cleared in #Bklyn on Belt Pkwy EB at Knapp St  stop and go traffic back to Ocean Pkwy  delay of 3 mins #traffic\r", "time": "2015-12-09T14:00:37", "lat": 40.58595, "id": 749720}
{"addr": "", "userid": 42640432, "long": -73.90272, "content": "Accident  right lane blocked in #CrossBronxExpwyUnderTheApartments on I-95 NB after Webster Ave  stop and go traffic back to The G.W.B.\r", "time": "2016-01-02T20:56:35", "lat": 40.84454, "id": 479240}
{"addr": "", "userid": 42640432, "long": -73.85241, "content": "Lane closures removed in #Queens on The Grand Central Pkwy EB at Northern Blvd  stopped traffic back to Astoria Blvd  delay of 25 mins\r", "time": "2016-01-25T21:03:50", "lat": 40.75753, "id": 209145}
{"addr": "", "userid": 42640432, "long": -73.81052, "content": "Accident  two lanes blocked in #Yorktown on Taconic State Pkwy SB north of Rt-134  stopped traffic back to Franklin D Roosevelt State Park\r", "time": "2016-01-06T11:35:20", "lat": 41.21441, "id": 423592}
{"addr": "", "userid": 50706690, "long": -74.044768, "content": "Heavy traffic on #NJ3 EB at NJ 495 https://t.co/hFs1VNJliu\r", "time": "2015-12-13T20:58:47", "lat": 40.775833, "id": 694043}
{"addr": "", "userid": 42640432, "long": -73.88206, "content": "Accident  three lanes blocked in #Queens on The L.I.E. EB approaching 80th St Ramp  stopped traffic back to X17  delay of 14 mins #traffic\r", "time": "2016-01-06T00:21:17", "lat": 40.72851, "id": 419830}
{"addr": "", "userid": 42640432, "long": -73.87681, "content": "Accident cleared in #Bronx:OnTheBrucknerExpwy on I-278 EB at The Bronx River Pkwy  stop and go traffic back to Hunts Pt Drawbridge #traffic\r", "time": "2015-12-05T01:31:39", "lat": 40.82375, "id": 805986}
{"addr": "", "userid": 42640432, "long": -74.02233, "content": "Accident cleared in #NorthBergen on Rt 1-9 NB approaching 69th St  stop and go traffic back to 52nd St  delay of 2 mins #traffic\r", "time": "2016-01-13T21:04:26", "lat": 40.80011, "id": 341897}
{"addr": "", "userid": 42640432, "long": -73.94383, "content": "Accident  right lane blocked in #Nyc on The FDR Dr NB at 96th St  stop and go traffic back to 53rd St  delay of 4 mins #traffic\r", "time": "2015-12-12T17:00:29", "lat": 40.78285, "id": 703687}
{"addr": "", "userid": 42640432, "long": -73.96519, "content": "Accident cleared in #Kings on Belt Pkwy EB at Ocean Pkwy  stop and go traffic back to Bay 8th St  delay of 7 mins #traffic\r", "time": "2016-01-23T00:26:27", "lat": 40.58402, "id": 227502}
{"addr": "", "userid": 42640432, "long": -73.83756, "content": "Closed due to accident in #Queens on The L.I.E. WB between X22 and x22  stopped traffic back to X23  delay of 12 mins #traffic\r", "time": "2016-01-25T09:55:40", "lat": 40.74339, "id": 203032}
{"addr": "", "userid": 42640432, "long": -73.68167, "content": "Incident cleared in #Patterson on I-84 WB between Ludingtonville Rd and before The Taconic Pky  stop and go traffic back to NY Rt-311\r", "time": "2016-01-29T23:16:29", "lat": 41.50815, "id": 159786}
{"addr": "", "userid": 42640432, "long": -73.90299, "content": "Accident cleared in #Bronx:OnTheBrucknerExpwy on I-278 WB at 138th St  stop and go traffic back to Hunts Pt Drawbridge  delay of 3 mins\r", "time": "2015-12-11T18:42:25", "lat": 40.80938, "id": 722655}
{"addr": "", "userid": 42640432, "long": -73.95252, "content": "Disabled vehicle  left lane blocked in #Nyc on The FDR Dr SB at 71st St  stop and go traffic back to 96th St  delay of 2 mins #traffic\r", "time": "2016-01-10T01:45:43", "lat": 40.76448, "id": 367081}
{"addr": "Rochester", "userid": 250319034, "long": -77.66077, "content": "Accident in #Rochester on I 390 NB at Rt-204  stop and go traffic back to Rt-15a  delay of 6 mins #traffic https://t.co/0wsFrmqFZG\r", "time": "2015-12-07T22:21:18", "lat": 43.13085, "id": 785488}
{"addr": "", "userid": 42640432, "long": -73.79285, "content": "Accident cleared in #Queens on The L.I.E. EB approaching X25  stop and go traffic back to x22  delay of 6 mins #traffic\r", "time": "2016-01-31T22:34:47", "lat": 40.73925, "id": 130525}
{"addr": "", "userid": 42640432, "long": -73.93021, "content": "Right lane blocked in #Bronx on I-95 SB after The Alexander Hamilton Brg  stopped traffic back to Bruckner Interchange  delay of 53 mins\r", "time": "2015-12-28T15:59:25", "lat": 40.84584, "id": 549231}
{"addr": "", "userid": 42640432, "long": -73.74419, "content": "Accident in #Queens on The Cross Island Pkwy SB at I-495  stop and go traffic back to The Throgs Neck BR  delay of 7 mins #traffic\r", "time": "2015-12-22T21:31:15", "lat": 40.75369, "id": 618569}
{"addr": "", "userid": 42640432, "long": -74.29104, "content": "Accident  right lane blocked in #Woodbridge on US-9 NB at CR-514  stop and go traffic back to Rt-184  delay of 2 mins #traffic\r", "time": "2015-12-15T14:37:52", "lat": 40.54991, "id": 671742}
{"addr": "", "userid": 42640432, "long": -73.99602, "content": "Disabled truck in #Bklyn:OnTheGowanusExpwy on I-278 EB at The Prospect Expwy  stop and go traffic back to 38th St  delay of 2 mins #traffic\r", "time": "2016-01-27T17:42:27", "lat": 40.66595, "id": 181812}
{"addr": "", "userid": 42640432, "long": -73.82648, "content": "Accident in #Queens on The Grand Central Pkwy EB at Kew Gardens Interchange  stop and go traffic back to Jewel Ave  delay of 1 min #traffic\r", "time": "2015-12-10T10:44:03", "lat": 40.71617, "id": 4859}
{"addr": "", "userid": 42640432, "long": -73.82154, "content": "Reopened in #TheBronx on Hutchinson River Pkwy NB between Hutchinson River Drawbridge and Orchard Beach  stopped traffic back to I-95\r", "time": "2015-12-07T23:20:08", "lat": 40.8685, "id": 46613}
{"addr": "", "userid": 42640432, "long": -73.98977, "content": "Closed in #Manhattan on 42nd St EB between 8th Ave and 6th Ave  stopped traffic back to 9th Ave  delay of 9 mins #traffic\r", "time": "2015-12-31T23:30:55", "lat": 40.75721, "id": 515774}
{"addr": "", "userid": 42640432, "long": -73.83325, "content": "Closed in #TheBronx:OnTheNewEnglandThruway on I-95 NB between Baychester Ave and Conner St  stopped traffic back to Country Club Rd #traffic\r", "time": "2016-01-26T22:45:11", "lat": 40.86995, "id": 197837}
{"addr": "", "userid": 42640432, "long": -73.79285, "content": "Accident in #Queens on The L.I.E. WB at X25  stop and go traffic back to x29  delay of 4 mins #traffic https://t.co/cLJ9IKJQWV\r", "time": "2016-01-10T21:56:05", "lat": 40.73925, "id": 378011}
{"addr": "", "userid": 42640432, "long": -73.85198, "content": "Incident cleared in #Queens on The L.I.E. EB at x21  stop and go traffic back to X17  delay of 6 mins #traffic https://t.co/cLJ9IKsg5n\r", "time": "2016-01-26T22:27:17", "lat": 40.73739, "id": 197554}
{"addr": "", "userid": 42640432, "long": -73.72416, "content": "Accident  right lane blocked in #Queens on The Cross Island Pkwy NB at Union Tpke  stop and go traffic back to Belmont Park  delay of 3 mins\r", "time": "2015-12-10T15:16:43", "lat": 40.7387, "id": 735194}
{"addr": "", "userid": 42640432, "long": -73.81494, "content": "Accident  left lane blocked in #Queens on The L.I.E. EB approaching X24  stop and go traffic back to x22  delay of 4 mins #traffic\r", "time": "2016-01-05T13:24:32", "lat": 40.73883, "id": 436453}
{"addr": "", "userid": 42640432, "long": -73.74419, "content": "Accident reported in #Queens on The Cross Island Pkwy SB at I-495  stop and go traffic back to Bell Blvd #traffic https://t.co/cLJ9IKJQWV\r", "time": "2016-01-05T00:52:05", "lat": 40.75369, "id": 432314}
{"addr": "", "userid": 42640432, "long": -73.94829, "content": "Accident  center lane blocked in #Bklyn:OnTheGowanusExpwy on I-278 WB at Metropolitan Ave  stop and go traffic back to The L.I.E. #traffic\r", "time": "2016-01-15T20:21:35", "lat": 40.71769, "id": 315778}
{"addr": "", "userid": 42640432, "long": -73.97413, "content": "Accident cleared in #Nyc on The FDR Dr SB at 20th  stop and go traffic back to 61st St  delay of 4 mins #traffic https://t.co/cLJ9IKJQWV\r", "time": "2016-01-31T01:45:02", "lat": 40.73279, "id": 118430}
{"addr": "", "userid": 42640432, "long": -73.8987, "content": "Disabled vehicle  center lane blocked in #Bklyn on Belt Pkwy EB after The Mill Basin Draw Brg  stop and go traffic back to Ford St #traffic\r", "time": "2015-12-07T21:59:20", "lat": 40.6047, "id": 45376}
{"addr": "", "userid": 42640432, "long": -73.72813, "content": "Accident in #Queens on The Cross Island Pkwy NB at Hempstead Tpk  stop and go traffic back to The Southern State Pkwy  delay of 4 mins\r", "time": "2016-01-08T12:21:24", "lat": 40.71111, "id": 398156}
{"addr": "", "userid": 42640432, "long": -74.00339, "content": "Incident cleared in #Bklyn:OnTheB.q.e. on I-278 EB between Hamilton Ave and Atlantic Ave  stopped traffic back to Ft. Hamilton Pkwy #traffic\r", "time": "2016-01-13T11:17:53", "lat": 40.67965, "id": 335739}
{"addr": "", "userid": 42640432, "long": -73.75691, "content": "Accident in #Queens on The Cross Island Pkwy SB at Northern BL  stop and go traffic back to The Throgs Neck BR  delay of 5 mins #traffic\r", "time": "2015-12-04T22:34:11", "lat": 40.76228, "id": 821749}
{"addr": "", "userid": 23440137, "long": -74.0064, "content": "Haha. The cause of the traffic jam. Construction and now the\u2026 https://t.co/lCi2tfN7yJ\r", "time": "2015-12-09T19:32:53", "lat": 40.7142, "id": 753987}
{"addr": "", "userid": 42640432, "long": -73.94829, "content": "Accident  left lane blocked in #Bklyn:OnTheGowanusExpwy on I-278 EB at Metropolitan Ave  stop and go traffic back to Flushing Ave #traffic\r", "time": "2015-12-07T18:55:00", "lat": 40.71769, "id": 42568}
{"addr": "", "userid": 42640432, "long": -73.91411, "content": "Accident in #TheBronx:OnTheCrossBronxExpwy on I-95 NB near Jerome Ave  stop and go traffic back to The Alexander Hamilton Brg #traffic\r", "time": "2015-12-29T19:24:58", "lat": 40.8451, "id": 539277}
{"addr": "", "userid": 42640432, "long": -73.95848, "content": "Accident  two lanes blocked in #Nyc on The FDR Dr NB approaching 61st St  stopped traffic back to 15th St  delay of 25 mins #traffic\r", "time": "2015-12-09T12:17:32", "lat": 40.75895, "id": 748559}
{"addr": "", "userid": 42640432, "long": -73.93118, "content": "Accident  left lane blocked in #TheBronx:OnTheMajorDeeganExpwy on I-87 NB at 138th St  stop and go traffic back to The Bruckner Expwy\r", "time": "2016-01-05T17:05:05", "lat": 40.81358, "id": 438578}
{"addr": "", "userid": 42640432, "long": -73.9911, "content": "Incident cleared in #Bklyn:OnTheBqe on I-278 WB after The Brooklyn Brg  stop and go traffic back to The Manhattan Br  delay of 1 min\r", "time": "2015-12-15T13:16:36", "lat": 40.70164, "id": 670922}
{"addr": "Rochester", "userid": 250319034, "long": -77.63872, "content": "Accident with injuries in #Rochester on W Rdg Rd WB east of Dewey Av  stop and go traffic back to Maplewood Dr  delay of 1 min #traffic\r", "time": "2016-01-22T22:22:59", "lat": 43.20045, "id": 258961}
{"addr": "", "userid": 42640432, "long": -73.90272, "content": "Accident in #Bronx on I-95 NB at Webster Ave  stop and go traffic back to The Alexander Hamilton Brg  delay of 3 mins #traffic\r", "time": "2016-01-14T15:44:37", "lat": 40.84454, "id": 325198}
{"addr": "", "userid": 42640432, "long": -73.86725, "content": "Prohibited vehicle on roadway in #Queens on The Jackie Robinson Pkwy WB at Forest Park Dr  stop and go traffic back to Metropolitan Ave\r", "time": "2015-12-21T17:55:49", "lat": 40.70204, "id": 628860}
{"addr": "", "userid": 42640432, "long": -73.88077, "content": "Right lane blocked in #InTheBronx:OnTheCrossBronxExpwy on I-95 SB after The Sheridan Expwy  stop and go traffic back to Bruckner Interchange\r", "time": "2016-01-20T11:44:18", "lat": 40.83749, "id": 275253}
{"addr": "", "userid": 42640432, "long": -73.8683, "content": "Accident  right lane blocked in #Bklyn on Belt Pkwy EB at Erskine St  stop and go traffic back to Cropsey Ave  delay of 19 mins #traffic\r", "time": "2015-12-10T22:16:08", "lat": 40.6504, "id": 741353}
{"addr": "", "userid": 42640432, "long": -73.98977, "content": "Closed in #Manhattan on 42nd St EB between 8th Ave and 6th Ave  stop and go traffic back to 9th Ave  delay of 1 min #traffic\r", "time": "2015-12-31T22:56:00", "lat": 40.75721, "id": 515176}
{"addr": "", "userid": 42640432, "long": -74.00339, "content": "Disabled vehicle  right lane blocked in #Bklyn:OnTheB.q.e. on I-278 WB at Hamilton Ave  stop and go traffic back to Cadman Plz #traffic\r", "time": "2016-01-27T20:14:37", "lat": 40.67965, "id": 183724}
{"addr": "", "userid": 42640432, "long": -73.80875, "content": "Accident cleared in #Queens on Belt Pkwy WB between The Van Wyck Expwy and Lefferts Blvd  stop and go traffic back to JFK Expy #traffic\r", "time": "2016-01-25T19:54:48", "lat": 40.6665, "id": 208343}
{"addr": "", "userid": 42640432, "long": -73.78034, "content": "Accident cleared in #Queens:OnTheBeltPkwy on Belt Pkwy WB at Rockaway Blvd  stop and go traffic back to Francis Lewis Blvd  delay of 5 mins\r", "time": "2016-01-05T13:54:37", "lat": 40.66717, "id": 436699}
{"addr": "", "userid": 42640432, "long": -73.93009, "content": "Accident  left lane blocked in #Nyc on The Harlem River Dr SB at 2nd Ave  stop and go traffic back to Park Ave  delay of 1 min #traffic\r", "time": "2016-01-01T18:43:40", "lat": 40.80198, "id": 495956}
{"addr": "", "userid": 42640432, "long": -73.94383, "content": "Accident  two lanes blocked in #Nyc on The FDR Dr NB approaching 96th St  stop and go traffic back to 61st St  delay of 3 mins #traffic\r", "time": "2016-01-10T15:59:59", "lat": 40.78285, "id": 372466}
{"addr": "", "userid": 42640432, "long": -73.82618, "content": "Closed in #Queens on Beach Channel Dr WB between Beach 104th St and before Beach 108th St  stop and go traffic back to Beach 94th St\r", "time": "2015-12-31T19:54:39", "lat": 40.58501, "id": 512154}
{"addr": "", "userid": 42640432, "long": -73.98086, "content": "Accident in #Englewood on Rt-4 WB approaching Grand Ave  stopped traffic back to The GWB  delay of 13 mins #traffic https://t.co/cLJ9IKJQWV\r", "time": "2015-12-09T22:00:19", "lat": 40.87891, "id": 756120}
{"addr": "", "userid": 42640432, "long": -73.97129, "content": "Disabled vehicle  left lane blocked in #Nyc on The FDR Dr NB at 42nd St  stop and go traffic back to The Brooklyn BR  delay of 6 mins\r", "time": "2015-12-09T21:03:04", "lat": 40.74424, "id": 755239}
{"addr": "", "userid": 42640432, "long": -74.02357, "content": "Accident cleared in #AreaOfHudsonRiverCrossingsLincolnHelix on The Lincoln  Tunl WB between Park Ave  stop and go traffic back to The Tolls\r", "time": "2015-12-10T23:01:59", "lat": 40.76867, "id": 14122}
{"addr": "", "userid": 42640432, "long": -73.96637, "content": "Accident in #Nyc:OnTheWestSideHwy on NY RT-9A SB at 125th St  stopped traffic back to Dyckman St  delay of 47 mins #traffic\r", "time": "2015-12-30T21:54:56", "lat": 40.81175, "id": 528328}
{"addr": "", "userid": 42640432, "long": -73.86192, "content": "Accident  left lane blocked in #Bronx on The Bronx River Pkwy NB at 233rd St  stop and go traffic back to Allerton Ave  delay of 5 mins\r", "time": "2016-01-29T23:28:59", "lat": 40.89482, "id": 159977}
{"addr": "", "userid": 42640432, "long": -73.95758, "content": "Accident in #Brooklyn on Belt Pkwy EB at Coney Island Ave  stop and go traffic back to Bay 8th St  delay of 8 mins #traffic\r", "time": "2015-12-08T22:23:17", "lat": 40.58508, "id": 108471}
{"addr": "", "userid": 42640432, "long": -73.87107, "content": "Disabled vehicle  right lane blocked in #Queens on The L.I.E. WB at x19  stop and go traffic back to x32  delay of 18 mins #traffic\r", "time": "2016-01-27T12:57:00", "lat": 40.73195, "id": 178608}
{"addr": "", "userid": 42640432, "long": -73.95252, "content": "Accident  two lanes blocked in #Nyc on The FDR Dr SB at 71st St  stop and go traffic back to 79th St  delay of 1 min #traffic\r", "time": "2016-01-24T17:34:15", "lat": 40.76448, "id": 220255}
{"addr": "", "userid": 148728810, "long": -73.87122, "content": "Holy traffic LGA-&gt;BOS (@ LaGuardia Airport (LGA) in East Elmhurst  NY) https://t.co/6k5XHEaeuP\r", "time": "2015-12-09T19:41:19", "lat": 40.773839, "id": 754093}
{"addr": "", "userid": 42640432, "long": -74.0169, "content": "Accident in #Bklyn:OnTheGowanusExpwy on I-278 WB between 6th Ave and 86th St  stopped traffic back to The Prospect Expwy  delay of 35 mins\r", "time": "2016-01-07T13:09:04", "lat": 40.6353, "id": 411373}
{"addr": "", "userid": 42640432, "long": -73.99415, "content": "Accident cleared in #Nyc on NY RT-9A SB at 56th  stop and go traffic back to 96th St  delay of 4 mins #traffic https://t.co/cLJ9IKJQWV\r", "time": "2015-12-07T16:34:43", "lat": 40.77151, "id": 40685}
{"addr": "", "userid": 42640432, "long": -73.91278, "content": "Accident  left lane blocked in #Bronx on I-87 SB approaching Fordham Rd  stop and go traffic back to Van Cortlandt Park S  delay of 4 mins\r", "time": "2015-12-21T17:51:23", "lat": 40.86188, "id": 628812}
{"addr": "", "userid": 42640432, "long": -73.88268, "content": "Accident  two lanes blocked in #TheBronx:OnTheBrucknerExpwy on I-278 WB at Hunts Pt Drawbridge  stop and go traffic back to White Plains Rd\r", "time": "2016-01-21T15:11:04", "lat": 40.82294, "id": 266630}
{"addr": "", "userid": 42640432, "long": -73.93021, "content": "Disabled vehicle  right lane blocked in #Bronx on I-95 NB at The Alexander Hamilton Brg  stop and go traffic back to The G.W.B. #traffic\r", "time": "2015-12-26T22:26:10", "lat": 40.84584, "id": 571254}
{"addr": "", "userid": 42640432, "long": -73.88604, "content": "Accident in #Queens on The Jackie Robinson Pkwy NB between Cypress Hills St and Forest Park Dr  stop and go traffic back to Vermont Pl\r", "time": "2015-12-27T10:55:42", "lat": 40.69133, "id": 560331}
{"addr": "", "userid": 42640432, "long": -73.82265, "content": "Accident in #Queens:OnTheBeltPkwy on Belt Pkwy WB at Lefferts Blvd  stop and go traffic back to Rockaway Blvd  delay of 5 mins #traffic\r", "time": "2015-12-06T01:19:29", "lat": 40.66486, "id": 788438}
{"addr": "", "userid": 42640432, "long": -74.0054, "content": "Accident cleared in #Bklyn on The Hugh Carey Battery Tunl WB at the Inside of the Tunl  stop and go traffic back to Hamilton Ave #traffic\r", "time": "2015-12-30T23:19:22", "lat": 40.68173, "id": 529605}
{"addr": "", "userid": 42640432, "long": -74.01948, "content": "Accident  right lane blocked in #Bklyn:OnTheGowanusExpwy on I-278 WB at Ft. Hamilton Pkwy  stop and go traffic back to 6th Ave #traffic\r", "time": "2016-01-07T17:57:39", "lat": 40.62427, "id": 414701}
{"addr": "", "userid": 42640432, "long": -74.01296, "content": "Accident  left lane blocked in #RidgefieldPark on I-95 Express Between NJ Tnpke &amp; I-80 NB at X69  stop and go traffic back to Rt-46 #traffic\r", "time": "2016-01-06T02:41:45", "lat": 40.85685, "id": 421292}
{"addr": "", "userid": 42640432, "long": -73.8172, "content": "Disabled vehicle  right lane blocked in #Queens on I-678 SB at Hillside Ave  stop and go traffic back to The Grand Central Pkwy #traffic\r", "time": "2015-12-17T12:53:45", "lat": 40.70403, "id": 645396}
{"addr": "", "userid": 42640432, "long": -73.92791, "content": "Accident  center lane blocked in #Queens:OnTheB.q.e. on I-278 WB at The Kosciuszko Brg  stop and go traffic back to The L.I.E. #traffic\r", "time": "2015-12-09T21:31:55", "lat": 40.72917, "id": 755692}
{"addr": "", "userid": 42640432, "long": -74.00339, "content": "Accident in #Bklyn:OnTheB.q.e. on I-278 EB at Hamilton Ave  stop and go traffic back to 38th St  delay of 4 mins #traffic\r", "time": "2015-12-11T19:52:11", "lat": 40.67965, "id": 74126}
{"addr": "", "userid": 42640432, "long": -73.77143, "content": "Disabled truck  caution in #Queens on I-295 SB at I-495  stop and go traffic back to 35th Ave  delay of 4 mins #traffic\r", "time": "2015-12-08T22:38:37", "lat": 40.74416, "id": 108694}
{"addr": "Albany", "userid": 65620338, "long": -73.78486, "content": "Accident cleared in #Albany on I-90 WB at Everett Rd  stop and go traffic back to I-787  delay of 6 mins #traffic https://t.co/Lz3PqqCJy2\r", "time": "2015-12-23T22:32:32", "lat": 42.68251, "id": 606925}
{"addr": "", "userid": 42640432, "long": -73.93021, "content": "Accident  right lane blocked in #Bronx on I-95 SB approaching The Alexander Hamilton Brg  stop and go traffic back to 3rd Ave #traffic\r", "time": "2016-01-13T11:19:37", "lat": 40.84584, "id": 335745}
{"addr": "", "userid": 42640432, "long": -74.49776, "content": "Accident in #SouthBrunswick on Rt-130 SB at Hwy 32  stop and go traffic back to CO Hwy 522  delay of 4 mins #traffic https://t.co/cLJ9IKJQWV\r", "time": "2015-12-05T17:56:23", "lat": 40.34727, "id": 25281}
{"addr": "", "userid": 42640432, "long": -73.99912, "content": "Accident  right lane blocked in #Bklyn:OnTheB.q.e. on I-278 EB at Atlantic Ave  stop and go traffic back to Belt Merge  delay of 8 mins\r", "time": "2015-12-10T13:16:28", "lat": 40.69155, "id": 733778}
{"addr": "", "userid": 42640432, "long": -73.72407, "content": "Accident cleared in #Queens on The L.I.E. WB at x32  stop and go traffic back to x35  delay of 7 mins #traffic https://t.co/cLJ9IKJQWV\r", "time": "2015-12-08T23:15:21", "lat": 40.76411, "id": 771321}
{"addr": "", "userid": 42640432, "long": -73.98789, "content": "Two lanes blocked in #NewYork on 7th Ave SB south of W 40th St  stop and go traffic back to W 41st St #traffic https://t.co/cLJ9IKJQWV\r", "time": "2016-01-14T21:41:50", "lat": 40.75475, "id": 329646}
{"addr": "", "userid": 42640432, "long": -73.94896, "content": "Accident  two lanes blocked in #Nyc on The FDR Dr NB approaching 79th St  stop and go traffic back to The Manhattan Br  delay of 8 mins\r", "time": "2015-12-12T01:19:46", "lat": 40.76873, "id": 695596}
{"addr": "", "userid": 42640432, "long": -74.52521, "content": "Accident  left lane blocked in #WarrenTwp on I-78 WB west of X36  stop and go traffic back to X41  delay of 11 mins #traffic\r", "time": "2016-01-08T22:18:37", "lat": 40.64733, "id": 405135}
{"addr": "", "userid": 42640432, "long": -73.82416, "content": "Disabled truck in #Queens:OnTheVanWyckExpwy on I-678 NB at The Grand Central Pkwy  stop and go traffic back to Linden Blvd  delay of 5 mins\r", "time": "2016-01-08T11:14:11", "lat": 40.71352, "id": 397937}
{"addr": "", "userid": 42640432, "long": -73.96637, "content": "Accident cleared in #Nyc:OnTheWestSideHwy on NY RT-9A NB between 125th St and 158th St  stop and go traffic back to 96th St  delay of 6 mins\r", "time": "2016-01-25T14:03:24", "lat": 40.81175, "id": 204324}
{"addr": "", "userid": 42640432, "long": -73.90803, "content": "Vehicle on fire in #Bklyn:OnTheBeltPkwy on Belt Pkwy WB at Flatbush Ave  stop and go traffic back to The Mill Basin Draw Brg #traffic\r", "time": "2015-12-29T22:19:50", "lat": 40.59264, "id": 541644}
{"addr": "", "userid": 42640432, "long": -73.86004, "content": "Two lanes blocked in #Bronx on I-95 SB at Castle Hl Ave  stop and go traffic back to E Tremont Ave  delay of 4 mins #traffic\r", "time": "2015-12-28T22:15:48", "lat": 40.83316, "id": 554289}
{"addr": "", "userid": 42640432, "long": -73.8413, "content": "Incident cleared in #Queens on The Jackie Robinson Pkwy WB at Metropolitan Ave  stop and go traffic back to The Kew Gardens Interchange\r", "time": "2015-12-09T13:45:01", "lat": 40.70903, "id": 749502}
{"addr": "", "userid": 42640432, "long": -73.86296, "content": "Accident  right lane blocked in #TheBronx:OnTheCrossBronxExpressway on I-95 NB at White Plains Rd  stopped traffic back to The G.W.B.\r", "time": "2015-12-12T23:14:46", "lat": 40.83403, "id": 710932}
{"addr": "", "userid": 53932318, "long": -74.00001602, "content": "Denver police officer shot multiple times during traffic stop  critically injured. https://t.co/jaTtmsvDRX\r", "time": "2015-12-08T19:32:36", "lat": 40.71669795, "id": 105932}
{"addr": "", "userid": 42640432, "long": -73.95763, "content": "Accident  two lanes blocked in #Nyc on The FDR Dr SB at 63rd St  stopped traffic back to The RFK-Triboro Br  delay of 32 mins #traffic\r", "time": "2015-12-06T20:10:00", "lat": 40.75987, "id": 91519}
{"addr": "", "userid": 42640432, "long": -73.93184, "content": "Accident in #Nyc on The FDR Dr SB at 116th St  stopped traffic back to The RFK-Triboro Br  delay of 3 mins #traffic https://t.co/cLJ9IKJQWV\r", "time": "2016-01-29T11:26:19", "lat": 40.79385, "id": 151446}
{"addr": "", "userid": 42640432, "long": -73.95602, "content": "Accident  right lane blocked in #Bklyn:OnTheB.q.e. on I-278 EB at The Williamsburg Br  stop and go traffic back to Atlantic Ave #traffic\r", "time": "2015-12-08T22:38:38", "lat": 40.71087, "id": 108695}
{"addr": "", "userid": 42640432, "long": -73.91602, "content": "Accident cleared in #Bronx:OnTheBrucknerExpwy on I-278 WB at The Deegan Expwy  stop and go traffic back to Hunts Pt Drawbridge #traffic\r", "time": "2015-12-24T20:20:53", "lat": 40.80345, "id": 592189}
{"addr": "", "userid": 42640432, "long": -73.75691, "content": "Accident  shoulder blocked in #Queens on The Cross Island Pkwy NB at Northern BL  stop and go traffic back to Union Tpke  delay of 5 mins\r", "time": "2015-12-28T18:43:02", "lat": 40.76228, "id": 551404}
{"addr": "", "userid": 42640432, "long": -73.7895, "content": "One lane blocked in #Queens:OnTheBeltPkwy on Belt Pkwy EB at 150th St  stop and go traffic back to The Van Wyck Expwy  delay of 2 mins\r", "time": "2016-01-13T15:23:04", "lat": 40.66632, "id": 337718}
{"addr": "", "userid": 42640432, "long": -73.84171, "content": "Accident in #Queens on The Jackie Robinson Pkwy SB at Metropolitan Ave  stop and go traffic back to I-678  delay of 2 mins #traffic\r", "time": "2015-12-09T21:04:14", "lat": 40.70892, "id": 59474}
{"addr": "", "userid": 42640432, "long": -73.94829, "content": "Accident  right lane blocked in #Bklyn:OnTheGowanusExpwy on I-278 WB at Metropolitan Ave  stop and go traffic back to The L.I.E. #traffic\r", "time": "2015-12-30T17:32:07", "lat": 40.71769, "id": 524242}
{"addr": "", "userid": 42640432, "long": -73.93173, "content": "Accident  two lanes blocked in #TheBronx:OnTheMajorDeeganExpwy on I-87 NB at Yankee Stadium  stopped traffic back to Willis Ave #traffic\r", "time": "2015-12-08T01:59:42", "lat": 40.83253, "id": 97597}
{"addr": "", "userid": 42640432, "long": -73.82826, "content": "Accident  two lanes blocked in #TheBronx on Hutchinson River Pkwy SB at I-95  stopped traffic back to I-95  delay of 18 mins #traffic\r", "time": "2015-12-16T01:28:59", "lat": 40.86085, "id": 655755}
{"addr": "", "userid": 42640432, "long": -73.8683, "content": "Incident cleared in #Bklyn on Belt Pkwy EB at Erskine St  stop and go traffic back to Pennsylvania Ave  delay of 1 min #traffic\r", "time": "2015-12-09T12:05:44", "lat": 40.6504, "id": 52705}
{"addr": "", "userid": 42640432, "long": -73.81052, "content": "Accident  shoulder blocked in #Yorktown on The Taconic State Pkwy SB north of Rt-134  stop and go traffic back to US-202  delay of 12 mins\r", "time": "2015-12-15T13:01:14", "lat": 41.21441, "id": 670737}
{"addr": "", "userid": 42640432, "long": -73.92791, "content": "Accident cleared in #Queens:OnTheB.q.e. on I-278 EB at The Kosciuszko Brg  stop and go traffic back to McGuiness Blvd  delay of 2 mins\r", "time": "2015-12-30T02:25:34", "lat": 40.72917, "id": 518024}
{"addr": "", "userid": 42640432, "long": -74.01874, "content": "Accident  left lane blocked in #Bklyn on Belt Pkwy EB at Bay 8th St  stop and go traffic back to 4th Ave  delay of 3 mins #traffic\r", "time": "2015-12-27T22:19:26", "lat": 40.60357, "id": 567374}
{"addr": "", "userid": 42640432, "long": -73.97522, "content": "Accident  two lanes blocked in #AreaOfHudsonRiverCrossingsGwbLocalNj on The G.W.B. NB at x72  stopped traffic back to Rt-4  delay of 5 mins\r", "time": "2016-01-05T14:16:07", "lat": 40.85889, "id": 436878}
{"addr": "", "userid": 42640432, "long": -73.90308, "content": "Disabled vehicle  right lane blocked in #Bronx on Bruckner Blvd WB at E 149th St  stop and go traffic back to Leggett Ave #traffic\r", "time": "2016-01-27T22:03:56", "lat": 40.80988, "id": 185158}
{"addr": "", "userid": 42640432, "long": -73.93725, "content": "Accident  right lane blocked in #Bklyn on Belt Pkwy EB at Knapp St  stop and go traffic back to Coney Island Ave  delay of 2 mins #traffic\r", "time": "2015-12-11T10:52:56", "lat": 40.58595, "id": 67475}
{"addr": "", "userid": 42640432, "long": -73.83756, "content": "Closed due to accident in #Queens on The L.I.E. WB at X22  stopped traffic back to X23  delay of 7 mins #traffic https://t.co/cLJ9IKJQWV\r", "time": "2016-01-25T09:25:53", "lat": 40.74339, "id": 202996}
{"addr": "", "userid": 42640432, "long": -74.003, "content": "Accident  left lane blocked in #RidgefieldPark on The G.W.B. NB at X70  stop and go traffic back to X69  delay of 2 mins #traffic\r", "time": "2015-12-12T01:14:42", "lat": 40.86898, "id": 695516}
{"addr": "Rochester", "userid": 250319034, "long": -77.61999, "content": "Accident in #Rochester on I-490 WB at Inner Lp  stop and go traffic back to Culver Rd  delay of 5 mins #traffic https://t.co/0wsFrm9588\r", "time": "2015-12-10T22:14:07", "lat": 43.15466, "id": 13315}
{"addr": "", "userid": 42640432, "long": -73.95949, "content": "Closed due to accident in #Manhattan on 125th St WB between St Clair Pl and Marginal St  stop and go traffic back to Broadway #traffic\r", "time": "2016-01-20T22:53:37", "lat": 40.81701, "id": 282431}
{"addr": "", "userid": 42640432, "long": -73.85198, "content": "Disabled truck in #Queens on The L.I.E. EB at x21  stop and go traffic back to x19  delay of 2 mins #traffic https://t.co/cLJ9IKJQWV\r", "time": "2015-12-16T12:18:34", "lat": 40.73739, "id": 660159}
{"addr": "Albany", "userid": 65620338, "long": -73.83539, "content": "Accident. right shoulder blocked in #Albany on I-90 WB at Exit 1 - Northway 87  stop and go traffic back to Corporate Woods Boulevard\r", "time": "2016-01-21T22:17:19", "lat": 42.69512, "id": 269990}
{"addr": "", "userid": 42640432, "long": -73.68167, "content": "Vehicle on fire in #Patterson on I-84 WB between Ludingtonville Rd and before The Taconic Pky  stopped traffic back to NY Rt-311 #traffic\r", "time": "2016-01-29T22:31:51", "lat": 41.50815, "id": 159131}
{"addr": "", "userid": 42640432, "long": -73.98465, "content": "Accident cleared in #Nyc on The FDR Dr NB at The Manhattan Br  stop and go traffic back to The Brooklyn BR  delay of 2 mins #traffic\r", "time": "2016-01-15T23:15:24", "lat": 40.7105, "id": 318141}
{"addr": "", "userid": 122228681, "long": -73.9964828, "content": "the traffic signals stood no chance... @ Di Palo's https://t.co/kaf7jyhXzL\r", "time": "2015-12-13T17:41:43", "lat": 40.7190514, "id": 690285}
{"addr": "", "userid": 42640432, "long": -73.97512, "content": "Accident cleared in #Nyc on The FDR Dr NB at Houston St  stop and go traffic back to The Manhattan Br  delay of 1 min #traffic\r", "time": "2015-12-08T15:33:12", "lat": 40.71875, "id": 102895}
{"addr": "", "userid": 42640432, "long": -73.84544, "content": "Accident  center lane blocked in #Queens on The L.I.E. EB at x22  stop and go traffic back to x20  delay of 2 mins #traffic\r", "time": "2015-12-12T15:23:25", "lat": 40.7401, "id": 702119}
{"addr": "", "userid": 42640432, "long": -73.72652, "content": "Accident cleared in #Queens on Belt Pkwy EB approaching The Southern State Pkwy  stop and go traffic back to Farmers Blvd  delay of 6 mins\r", "time": "2016-01-06T12:35:56", "lat": 40.68352, "id": 423845}
{"addr": "", "userid": 42640432, "long": -73.91411, "content": "Incident cleared in #TheBronx:OnTheCrossBronxExpwy on I-95 SB at Jerome Ave  stop and go traffic back to Bruckner Interchange #traffic\r", "time": "2015-12-11T21:32:26", "lat": 40.8451, "id": 75774}
{"addr": "", "userid": 42640432, "long": -73.85241, "content": "Accident  two lanes blocked in #Queens on The Grand Central Pkwy WB at Northern Blvd  stop and go traffic back to Roosevelt Ave #traffic\r", "time": "2016-01-24T22:06:49", "lat": 40.75753, "id": 225283}
{"addr": "", "userid": 42640432, "long": -73.97393, "content": "Lane closures removed in #Nyc on The FDR Dr NB between 34th St and 42nd St  stopped traffic back to 15th St  delay of 12 mins #traffic\r", "time": "2015-12-06T02:22:29", "lat": 40.73792, "id": 789511}
{"addr": "", "userid": 42640432, "long": -73.93184, "content": "Accident  two lanes blocked in #Nyc on The FDR Dr SB at 116th St  stopped traffic back to The RFK-Triboro Br  delay of 3 mins #traffic\r", "time": "2015-12-08T13:44:42", "lat": 40.79385, "id": 763833}
{"addr": "", "userid": 42640432, "long": -73.78247, "content": "Closed due to serious fire in #Queens on Hillside Ave WB west of Midland Pky and before 169th St  stopped traffic back to 188th St #traffic\r", "time": "2016-01-12T19:26:45", "lat": 40.71298, "id": 353031}
{"addr": "", "userid": 42640432, "long": -73.785, "content": "Accident cleared in #Queens on The Cross Island Pkwy NB at The Throgs Neck BR  stop and go traffic back to Linden Blvd  delay of 18 mins\r", "time": "2016-01-27T11:42:12", "lat": 40.78956, "id": 178193}
{"addr": "", "userid": 42640432, "long": -73.8683, "content": "Closed due to accident in #Bklyn on Belt Pkwy EB between Erskine St and Cross Bay Blvd  stopped traffic back to Pennsylvania Ave #traffic\r", "time": "2015-12-26T01:51:58", "lat": 40.6504, "id": 569831}
{"addr": "", "userid": 42640432, "long": -74.03068, "content": "Accident  right lane blocked in #Bklyn on Belt Pkwy WB at 65th St - 67th St  stop and go traffic back to 4th Ave  delay of 4 mins #traffic\r", "time": "2016-01-15T14:09:48", "lat": 40.64165, "id": 310964}
{"addr": "", "userid": 42640432, "long": -73.8066, "content": "Accident in #PleasantValley on Taconic State Pkwy SB near Mtn Rd  stop and go traffic back to MC Donnell Rd  delay of 4 mins #traffic\r", "time": "2016-01-06T12:55:04", "lat": 41.69688, "id": 423986}
{"addr": "", "userid": 42640432, "long": -73.94014, "content": "Incident cleared in #Nyc on The FDR Dr SB at 106th St  stop and go traffic back to 116th St  delay of 1 min #traffic https://t.co/cLJ9IKJQWV\r", "time": "2016-01-30T01:38:53", "lat": 40.78528, "id": 133142}
{"addr": "", "userid": 42640432, "long": -73.93346, "content": "Closed due to accident in #NewYork on The Harlem River Dr SB between G.W.B. and 8th Ave  stopped traffic back to Dyckman St #traffic\r", "time": "2016-01-01T23:53:44", "lat": 40.83833, "id": 500886}
{"addr": "", "userid": 42640432, "long": -73.93212, "content": "Construction work in #CrossBronxExpwyUnderTheApartments on I-95 SB approaching The G.W.B.  stop and go traffic back to Castle Hl Ave\r", "time": "2016-01-08T21:36:52", "lat": 40.84641, "id": 404525}
{"addr": "", "userid": 42640432, "long": -73.92681, "content": "Incident cleared in #Bronx on I-87 NB at Cross Bronx  stop and go traffic back to Yankee Stadium  delay of 2 mins #traffic\r", "time": "2015-12-23T23:33:16", "lat": 40.84502, "id": 607612}
{"addr": "", "userid": 42640432, "long": -73.99415, "content": "Accident reported in #Nyc on NY RT-9A NB between 56th and 72nd St  stop and go traffic back to 56th  delay of 1 min #traffic\r", "time": "2015-12-08T20:06:46", "lat": 40.77151, "id": 768399}
{"addr": "", "userid": 42640432, "long": -73.83779, "content": "Accident  right lane blocked in #Queens:OnTheVanWyckExpwy on I-678 NB at The L.I.E.  stop and go traffic back to Horace Harding BL #traffic\r", "time": "2015-12-25T23:54:38", "lat": 40.74323, "id": 582174}
{"addr": "", "userid": 42640432, "long": -73.89756, "content": "Accident  right lane blocked in #Bronx on I-95 NB at 3rd Ave  stop and go traffic back to The G.W.B.  delay of 4 mins #traffic\r", "time": "2015-12-06T17:05:07", "lat": 40.84393, "id": 88174}
{"addr": "", "userid": 42640432, "long": -73.73464, "content": "Accident in #Queens on Belt Pkwy WB between Merrick Blvd and Francis Lewis Blvd  stopped traffic back to The Southern State Pkwy #traffic\r", "time": "2016-01-24T20:54:24", "lat": 40.67377, "id": 223934}
{"addr": "", "userid": 42640432, "long": -74.08755, "content": "Serious accident in #TintonFalls on The Garden State Pkwy NB at X102  stop and go traffic back to X100  delay of 4 mins #traffic\r", "time": "2015-12-23T19:56:31", "lat": 40.23893, "id": 605009}
{"addr": "", "userid": 42640432, "long": -73.96109, "content": "Accident  right lane blocked in #Bklyn:OnTheBqe on I-278 WB at Wythe Ave  stop and go traffic back to Meeker  delay of 4 mins #traffic\r", "time": "2016-01-20T19:53:13", "lat": 40.70135, "id": 280193}
{"addr": "", "userid": 42640432, "long": -73.97906, "content": "Closed in #NewYork on 53rd St WB between 6th Ave and 8th Ave  stopped traffic back to 5th Ave  delay of 5 mins #traffic\r", "time": "2016-01-01T00:51:23", "lat": 40.76177, "id": 482729}
{"addr": "", "userid": 42640432, "long": -73.9189, "content": "Accident  left lane blocked in #Queens on The Grand Central Pkwy WB at Hoyt Ave  stop and go traffic back to La Guardia Airport &amp; 94th St\r", "time": "2016-01-07T13:06:42", "lat": 40.77198, "id": 411348}
{"addr": "", "userid": 42640432, "long": -74.96935, "content": "Accident  left lane blocked in #UnionTownship on I-78 WB at X12  stop and go traffic back to X18  delay of 12 mins #traffic\r", "time": "2016-01-21T23:51:41", "lat": 40.63522, "id": 270998}
{"addr": "", "userid": 42640432, "long": -73.83601, "content": "Accident cleared in #Queens on The Grand Central Pkwy WB at Jewel Ave  stop and go traffic back to Francis Lewis Blvd  delay of 10 mins\r", "time": "2016-01-22T23:59:44", "lat": 40.72278, "id": 260284}
{"addr": "New York City", "userid": 3073225894, "long": -74.00404355, "content": "#NYCmissed lady in Minivan 23rd ST 10th Ave making eye conta at traffic light - m4w (Chelsea) https://t.co/kqrsg19uc1\r", "time": "2015-12-06T12:45:10", "lat": 40.71098913, "id": 793837}
{"addr": "", "userid": 42640432, "long": -73.99912, "content": "Road cleared in #Bklyn:OnTheB.q.e. on I-278 EB at Atlantic Ave  stop and go traffic back to The Prospect Expwy  delay of 4 mins #traffic\r", "time": "2016-01-12T18:39:54", "lat": 40.69155, "id": 352393}
{"addr": "", "userid": 42640432, "long": -73.83601, "content": "Accident  center lane blocked in #Queens on The Grand Central Pkwy EB at Jewel Ave  stop and go traffic back to Roosevelt Ave #traffic\r", "time": "2016-01-11T23:20:04", "lat": 40.72278, "id": 365099}
{"addr": "", "userid": 42640432, "long": -73.81054, "content": "Accident  right lane blocked in #Queens:OnTheVanWyckExwy on I-678 SB approaching Liberty Ave  stop and go traffic back to The L.I.E.\r", "time": "2015-12-10T22:14:46", "lat": 40.69197, "id": 741319}
{"addr": "", "userid": 42640432, "long": -73.84532, "content": "Accident in #Queens:OnTheBeltPkwy on Belt Pkwy EB at Cross Bay Blvd  stop and go traffic back to Flatbush Ave  delay of 13 mins #traffic\r", "time": "2015-12-05T20:49:35", "lat": 40.66444, "id": 28694}
{"addr": "", "userid": 42640432, "long": -73.93021, "content": "Accident  right lane blocked in #Bronx on I-95 SB approaching The Alexander Hamilton Brg  stop and go traffic back to The Bronx River Pkwy\r", "time": "2016-01-13T11:28:07", "lat": 40.84584, "id": 335766}
{"addr": "", "userid": 42640432, "long": -73.94896, "content": "Accident  right lane blocked in #Nyc on The FDR Dr SB at 79th St  stop and go traffic back to The RFK-Triboro Br  delay of 4 mins #traffic\r", "time": "2016-01-12T11:26:08", "lat": 40.76873, "id": 348137}
{"addr": "", "userid": 42640432, "long": -74.00339, "content": "Closed ahead in #Bklyn:OnTheB.q.e. on I-278 EB between Hamilton Ave and Atlantic Ave  stopped traffic back to 7th Ave  delay of 49 mins\r", "time": "2016-01-13T11:06:51", "lat": 40.67965, "id": 335710}
{"addr": "", "userid": 42640432, "long": -73.74419, "content": "Accident cleared in #Queens on The Cross Island Pkwy SB at I-495  stop and go traffic back to Northern BL  delay of 2 mins #traffic\r", "time": "2016-01-05T14:01:08", "lat": 40.75369, "id": 436763}
{"addr": "", "userid": 42640432, "long": -73.89976, "content": "Accident  two lanes blocked in #Queens:OnTheB.q.e. on I-278 EB at 65th Pl  stop and go traffic back to The L.I.E.  delay of 2 mins #traffic\r", "time": "2016-01-25T14:43:57", "lat": 40.74002, "id": 204706}
{"addr": "BROOKLYN", "userid": 99374116, "long": -73.993899, "content": "THE BEST WAY TO TRAVEL... NO TRAFFIC  NO HEADACHE! @ Pennsylvania Station https://t.co/92ewwJARWa\r", "time": "2016-01-20T12:14:13", "lat": 40.750638, "id": 275386}
{"addr": "", "userid": 53932318, "long": -74.00001602, "content": "From 2012: Gun deaths will surpass traffic accidents deaths by 2015: 2015: GunsInAmerica https://t.co/Up74b06Y8J\r", "time": "2016-01-08T01:58:04", "lat": 40.71669795, "id": 395172}
{"addr": "", "userid": 42640432, "long": -73.90454, "content": "Accident cleared in #AreaOfTheRfkTriboroBrQueens on The Grand Central Pkwy WB after The B.Q.E.  stop and go traffic back to Astoria Blvd\r", "time": "2016-01-31T21:24:22", "lat": 40.76807, "id": 129283}
{"addr": "", "userid": 42640432, "long": -73.72416, "content": "Accident cleared in #Queens on The Cross Island Pkwy NB at Union Tpke  stop and go traffic back to The Southern State Pkwy  delay of 8 mins\r", "time": "2016-01-12T12:05:03", "lat": 40.7387, "id": 348311}
{"addr": "", "userid": 42640432, "long": -73.82826, "content": "Accident  right lane blocked in #TheBronx on Hutchinson River Pkwy SB at I-95  stop and go traffic back to Boston Rd  delay of 5 mins\r", "time": "2015-12-05T22:22:57", "lat": 40.86085, "id": 820001}
{"addr": "", "userid": 15829435, "long": -74.0064, "content": "stuck in traffic = #selfie \ud83d\udea6 @ New York  New York https://t.co/PBiCHC2jc9\r", "time": "2015-12-11T20:56:49", "lat": 40.7142, "id": 75144}
{"addr": "", "userid": 42640432, "long": -73.75691, "content": "Accident  right lane blocked in #Queens on The Cross Island Pkwy SB at Northern BL  stop and go traffic back to The Throgs Neck BR #traffic\r", "time": "2016-01-12T20:58:03", "lat": 40.76228, "id": 354135}
{"addr": "", "userid": 42640432, "long": -74.02357, "content": "Accident in #AreaOfHudsonRiverCrossingsLincolnHelix on The Lincoln  Tunl WB near Park Ave  stop and go traffic back to The Tolls #traffic\r", "time": "2016-01-08T19:13:59", "lat": 40.76867, "id": 402634}
{"addr": "", "userid": 42640432, "long": -73.9313, "content": "Closed due to accident in #TheBronx:OnTheMajorDeeganExpwy on I-87 SB at Yankee Stadium  stopped traffic back to Yankee Stadium #traffic\r", "time": "2016-01-25T03:47:33", "lat": 40.82829, "id": 201639}
{"addr": "", "userid": 42640432, "long": -73.99415, "content": "Accident cleared in #Nyc on NY RT-9A SB near 56th  stop and go traffic back to 125th St  delay of 6 mins #traffic https://t.co/cLJ9IKJQWV\r", "time": "2015-12-13T18:41:26", "lat": 40.77151, "id": 691431}
{"addr": "", "userid": 42640432, "long": -73.82154, "content": "Bridge blocked in #TheBronx on Hutchinson River Pkwy SB between Hutchinson River Drawbridge and I-95  stopped traffic back to Orchard Beach\r", "time": "2015-12-07T19:50:37", "lat": 40.8685, "id": 43394}
{"addr": "", "userid": 42640432, "long": -73.88206, "content": "Accident cleared in #Queens on The L.I.E. WB at 80th St Ramp  stop and go traffic back to x19  delay of 2 mins #traffic\r", "time": "2016-01-01T22:05:44", "lat": 40.72851, "id": 499314}
{"addr": "", "userid": 42640432, "long": -73.92791, "content": "Incident cleared in #Brooklyn on I-278 EB at The Kosciuszko Brg  stop and go traffic back to Flushing Ave  delay of 6 mins #traffic\r", "time": "2016-01-20T18:49:44", "lat": 40.72917, "id": 279510}
{"addr": "", "userid": 42640432, "long": -73.81054, "content": "Accident cleared in #Queens:OnTheVanWyckExwy on I-678 NB at Liberty Ave  stop and go traffic back to The Belt Pkwy  delay of 4 mins #traffic\r", "time": "2016-01-14T00:12:11", "lat": 40.69197, "id": 318951}
{"addr": "", "userid": 42640432, "long": -73.91411, "content": "Accident  two lanes blocked in #TheBronx:OnTheCrossBronxExpwy on I-95 SB at Jerome Ave  stop and go traffic back to Castle Hl Ave #traffic\r", "time": "2016-01-27T18:03:09", "lat": 40.8451, "id": 182054}
{"addr": "", "userid": 42640432, "long": -73.99912, "content": "Accident cleared in #Bklyn:OnTheB.q.e. on I-278 EB at Atlantic Ave  stop and go traffic back to Hamilton Ave  delay of 2 mins #traffic\r", "time": "2016-01-13T18:46:54", "lat": 40.69155, "id": 340142}
{"addr": "", "userid": 42640432, "long": -73.8362, "content": "Accident  two lanes blocked in #Queens on I-678 NB at Horace Harding BL  stop and go traffic back to Hillside Ave  delay of 5 mins #traffic\r", "time": "2015-12-23T17:57:07", "lat": 40.73485, "id": 603437}
{"addr": "", "userid": 42640432, "long": -73.95602, "content": "Accident  right lane blocked in #Bklyn:OnTheB.q.e. on I-278 EB at The Williamsburg Br  stop and go traffic back to Atlantic Ave #traffic\r", "time": "2015-12-08T22:38:38", "lat": 40.71087, "id": 770745}
{"addr": "", "userid": 42640432, "long": -73.90299, "content": "Accident cleared in #Bronx:OnTheBrucknerExpwy on I-278 EB at 138th St  stop and go traffic back to The Deegan Expwy  delay of 2 mins\r", "time": "2015-12-05T00:59:45", "lat": 40.80938, "id": 805454}
{"addr": "", "userid": 42640432, "long": -73.95602, "content": "Accident cleared in #Bklyn:OnTheB.q.e. on I-278 EB at The Williamsburg Br  stop and go traffic back to Atlantic Ave  delay of 7 mins\r", "time": "2015-12-08T22:40:10", "lat": 40.71087, "id": 108716}
{"addr": "", "userid": 42640432, "long": -73.94829, "content": "Accident  left lane blocked in #Bklyn:OnTheGowanusExpwy on I-278 EB at Metropolitan Ave  stop and go traffic back to Hamilton Ave #traffic\r", "time": "2015-12-09T21:18:05", "lat": 40.71769, "id": 755479}
{"addr": "", "userid": 42640432, "long": -73.81914, "content": "Accident  two lanes blocked in #Bronx on Hutchinson River Pkwy NB at Orchard Beach  stop and go traffic back to I-95  delay of 2 mins\r", "time": "2015-12-11T21:47:35", "lat": 40.87091, "id": 76054}
{"addr": "", "userid": 42640432, "long": -73.94438, "content": "Accident  right lane blocked in #Bklyn:OnTheB.q.e. on I-278 EB after McGuiness Blvd  stop and go traffic back to Flushing Ave #traffic\r", "time": "2016-01-27T22:10:36", "lat": 40.72014, "id": 185243}
{"addr": "", "userid": 41521265, "long": -73.9938166, "content": "Dreaming of the best guacamole of my life while stuck in traffic \ud83d\ude2d #vscogrid #vscocam @ Tacombi https://t.co/S7wm9MIdQU\r", "time": "2015-12-10T14:52:56", "lat": 40.72407543, "id": 734910}
{"addr": "", "userid": 42640432, "long": -73.84544, "content": "Disabled vehicle  center lane blocked in #Queens on The L.I.E. WB at x22  stop and go traffic back to X26  delay of 8 mins #traffic\r", "time": "2016-01-14T21:04:32", "lat": 40.7401, "id": 329154}
{"addr": "", "userid": 42640432, "long": -73.94438, "content": "Accident  right lane blocked in #Bklyn:OnTheB.q.e. on I-278 EB approaching McGuiness Blvd  stop and go traffic back to The Williamsburg Br\r", "time": "2016-01-05T14:58:46", "lat": 40.72014, "id": 437252}
{"addr": "", "userid": 42640432, "long": -73.72813, "content": "Accident in #Queens on The Cross Island Pkwy SB at Hempstead Tpk  stop and go traffic back to Belmont Park  delay of 1 min #traffic\r", "time": "2015-12-24T13:04:49", "lat": 40.71111, "id": 586869}
{"addr": "", "userid": 42640432, "long": -73.90425, "content": "Accident cleared in #Queens:OnTheB.q.e on I-278 WB at Astoria Blvd  stop and go traffic back to The Grand Central... https://t.co/cLJ9IKJQWV\r", "time": "2015-12-08T21:22:32", "lat": 40.76752, "id": 107518}
{"addr": "", "userid": 42640432, "long": -74.00294, "content": "Accident cleared in #Nyc on The FDR Dr SB at The Brooklyn BR  stop and go traffic back to Houston St  delay of 3 mins #traffic\r", "time": "2015-12-07T15:15:32", "lat": 40.70609, "id": 779472}
{"addr": "", "userid": 53932318, "long": -74.00001602, "content": "73-year-old man arrested for trying to snort cocaine during traffic stop https://t.co/uOcBOEOYDs\r", "time": "2015-12-06T06:13:12", "lat": 40.71669795, "id": 83776}
