{"addr": "", "userid": 575726010, "long": -74.0267136, "content": "There really is no place like home for the holidays when the traffic's this terrific. @ Lincoln\u2026 https://t.co/rqJKquSAwj\r", "time": "2015-12-17T23:08:21", "lat": 40.77002628, "id": 653465}
{"addr": "", "userid": 42640432, "long": -73.87584, "content": "Accident cleared in #Queens on The Grand Central Pkwy WB at La Guardia Airport &amp; 94th St  stop and go traffic back to Northern Blvd #traffic\r", "time": "2015-12-04T23:21:30", "lat": 40.77166, "id": 822456}
{"addr": "", "userid": 42640432, "long": -73.92872, "content": "M.T.A. N.Y.C. Subways:  M Train SB normal services resumed at 36th St #traffic https://t.co/cLJ9IKJQWV\r", "time": "2016-01-26T14:55:09", "lat": 40.75203, "id": 192227}
{"addr": "", "userid": 42640432, "long": -73.89756, "content": "Accident  right lane blocked in #Bronx on I-95 NB after 3rd Ave  stop and go traffic back to The G.W.B.  delay of 4 mins #traffic\r", "time": "2015-12-06T22:37:45", "lat": 40.84393, "id": 94346}
{"addr": "", "userid": 42640432, "long": -73.93346, "content": "Accident  shoulder blocked in #NewYork on The Harlem River Dr NB at G.W.B.  stop and go traffic back to 8th Ave  delay of 1 min #traffic\r", "time": "2015-12-12T17:59:27", "lat": 40.83833, "id": 704736}
{"addr": "", "userid": 42640432, "long": -73.95181, "content": "Incident cleared in #Bklyn:OnTheB.q.e. on I-278 WB at Williamsburg Br  stop and go traffic back to Meeker  delay of 2 mins #traffic\r", "time": "2016-01-20T14:46:35", "lat": 40.71514, "id": 276708}
{"addr": "", "userid": 42640432, "long": -73.98073, "content": "Incident cleared in #Bklyn:OnTheB.q.e. on I-278 WB approaching The Manhattan Br  stop and go traffic back to Williamsburg Br #traffic\r", "time": "2016-01-07T15:47:57", "lat": 40.69649, "id": 413010}
{"addr": "", "userid": 42640432, "long": -73.785, "content": "Accident in #Queens on The Cross Island Pkwy NB at The Throgs Neck BR  stop and go traffic back to Linden Blvd  delay of 18 mins #traffic\r", "time": "2016-01-27T11:22:27", "lat": 40.78956, "id": 178130}
{"addr": "", "userid": 42640432, "long": -74.08755, "content": "Serious accident in #TintonFalls on The Garden State Pkwy NB at X102  stopped traffic back to X100  delay of 17 mins #traffic\r", "time": "2015-12-23T19:57:08", "lat": 40.23893, "id": 605013}
{"addr": "", "userid": 42640432, "long": -73.9343, "content": "M.T.A. N.Y.C. Subways:  1 Train normal services resumed at 181st St #traffic https://t.co/cLJ9IKJQWV\r", "time": "2016-01-31T18:44:12", "lat": 40.8495, "id": 126481}
{"addr": "", "userid": 42640432, "long": -73.92872, "content": "M.T.A. N.Y.C. Subways:  M Train SB delayed until further notice at 36th St #traffic https://t.co/cLJ9IKJQWV\r", "time": "2016-01-26T12:35:21", "lat": 40.75203, "id": 190908}
{"addr": "", "userid": 42640432, "long": -74.00964, "content": "Accident cleared in #NjSide on The Lincoln Tunl Ctr Tube Inbound at The Tube #traffic https://t.co/cLJ9IKJQWV\r", "time": "2015-12-10T12:47:48", "lat": 40.76291, "id": 733453}
{"addr": "", "userid": 42640432, "long": -74.00339, "content": "Disabled vehicle  right lane blocked in #Bklyn:OnTheB.q.e. on I-278 WB at Hamilton Ave  stop and go traffic back to Atlantic Ave #traffic\r", "time": "2015-12-17T20:39:43", "lat": 40.67965, "id": 651363}
{"addr": "", "userid": 42640432, "long": -73.77143, "content": "Accident  two lanes blocked in #Queens on I-295 SB at I-495  stopped traffic back to 35th Ave  delay of 18 mins #traffic\r", "time": "2016-01-27T11:13:49", "lat": 40.74416, "id": 178114}
{"addr": "", "userid": 42640432, "long": -73.99219, "content": "Incident cleared in #Bklyn:OnTheB.q.e. on I-278 WB at Cadman Plz #traffic https://t.co/cLJ9IKJQWV\r", "time": "2015-12-28T00:56:23", "lat": 40.70169, "id": 543730}
{"addr": "", "userid": 42640432, "long": -73.81052, "content": "Closed in #Yorktown on Taconic State Pkwy SB north of Rt-134  stopped traffic back to US-202  delay of 58 mins #traffic\r", "time": "2016-01-06T12:08:12", "lat": 41.21441, "id": 423718}
{"addr": "", "userid": 42640432, "long": -73.75466, "content": "Accident in #Queens on I-295 SB at Hillside Ave  stop and go traffic back to Union Tpke  delay of 1 min #traffic https://t.co/cLJ9IKJQWV\r", "time": "2016-01-04T21:08:54", "lat": 40.72512, "id": 452714}
{"addr": "Rochester", "userid": 250319034, "long": -77.63872, "content": "Accident in #Rochester on Dewey Ave Both NB/SB at W Rdg Rd #traffic https://t.co/0wsFrmqFZG\r", "time": "2016-01-22T21:43:49", "lat": 43.20045, "id": 258423}
{"addr": "", "userid": 42640432, "long": -73.72813, "content": "Accident in #Queens on The Cross Island Pkwy SB south of Hempstead Tpk  stop and go traffic back to Union Tpke  delay of 4 mins #traffic\r", "time": "2016-01-10T21:32:49", "lat": 40.71111, "id": 377561}
{"addr": "", "userid": 42640432, "long": -73.95763, "content": "Accident on The FDR Dr SB at 63rd St #traffic https://t.co/cLJ9IKJQWV\r", "time": "2016-01-25T06:27:42", "lat": 40.75987, "id": 202634}
{"addr": "", "userid": 1941910555, "long": -73.94418547, "content": "#stuckintraffic on the #fdr with good view of the #eastriver #edkochqueensborobridge\u2026 https://t.co/Ig2kQOz6iI\r", "time": "2015-12-09T13:26:18", "lat": 40.77364375, "id": 749291}
{"addr": "", "userid": 42640432, "long": -73.9829, "content": "Closed in #Manhattan on W 57th St EB between 8th Ave and 6th Ave #traffic https://t.co/cLJ9IKJQWV\r", "time": "2016-01-01T00:24:32", "lat": 40.76669, "id": 482362}
{"addr": "", "userid": 42640432, "long": -73.94383, "content": "Accident  left lane blocked in #Nyc on The FDR Dr SB at 96th St  stopped traffic back to The RFK-Triboro Br  delay of 13 mins #traffic\r", "time": "2015-12-11T18:57:59", "lat": 40.78285, "id": 73252}
{"addr": "", "userid": 42640432, "long": -73.87181, "content": "Vehicle on fire in #TheBronx on The Bronx River Pkwy NB between Pelham Pkwy and Gun Hl Rd  stop and go traffic back to Boston Rd #traffic\r", "time": "2016-01-12T05:31:02", "lat": 40.85409, "id": 347296}
{"addr": "Rochester", "userid": 250319034, "long": -77.68988, "content": "Accident reported in #Gates on Hwy 33a Both EB/WB near Howard Rd #traffic https://t.co/0wsFrmqFZG\r", "time": "2015-12-24T16:41:44", "lat": 43.13086, "id": 589214}
{"addr": "", "userid": 42640432, "long": -73.92321, "content": "Accident  three lanes blocked in #AreaOfTheRfkTriboroBrQueens on I-278 EB at The RFK  stopped traffic back to The... https://t.co/cLJ9IKJQWV\r", "time": "2015-12-17T17:23:11", "lat": 40.77524, "id": 648518}
{"addr": "", "userid": 42640432, "long": -73.83601, "content": "Accident  left lane blocked in #Queens on The Grand Central Pkwy EB at Jewel Ave  stop and go traffic back to Roosevelt Ave  delay of 4 mins\r", "time": "2016-01-21T00:42:47", "lat": 40.72278, "id": 260906}
{"addr": "", "userid": 42640432, "long": -74.0178, "content": "Closed in #RidgefieldPark on Rt-46 WB between I-95 N Of Tnpke and Main St #traffic https://t.co/cLJ9IKJQWV\r", "time": "2016-01-08T16:49:44", "lat": 40.84699, "id": 400656}
{"addr": "", "userid": 42640432, "long": -73.83601, "content": "Accident  shoulder blocked in #Queens on The Grand Central Pkwy EB at Jewel Ave  stop and go traffic back to Northern Blvd  delay of 5 mins\r", "time": "2016-01-12T23:23:25", "lat": 40.72278, "id": 355955}
{"addr": "", "userid": 42640432, "long": -73.90308, "content": "Disabled vehicle  right lane blocked in #Bronx on Bruckner Blvd WB at E 149th St  stop and go traffic back to Leggett Ave #traffic\r", "time": "2016-01-27T21:29:50", "lat": 40.80988, "id": 184699}
{"addr": "", "userid": 42640432, "long": -73.91278, "content": "Accident in #Bronx on I-87 SB at Fordham Rd  stop and go traffic back to E 233rd St  delay of 6 mins #traffic https://t.co/cLJ9IKJQWV\r", "time": "2016-01-29T13:11:35", "lat": 40.86188, "id": 152065}
{"addr": "", "userid": 42640432, "long": -74.0136, "content": "M.T.A. N.Y.C. Subways:  1 Train SB delayed until further notice at Rector St #traffic https://t.co/cLJ9IKJQWV\r", "time": "2016-01-22T14:18:18", "lat": 40.708, "id": 252831}
{"addr": "", "userid": 42640432, "long": -73.86446, "content": "Accident reported in #Queens on The L.I.E. WB at x20 #traffic https://t.co/cLJ9IKJQWV\r", "time": "2015-12-17T10:03:59", "lat": 40.73394, "id": 644801}
{"addr": "Rochester", "userid": 250319034, "long": -77.55311, "content": "Accident in #Rochester on Blossom Rd Both EB/WB at Winton Rd #traffic https://t.co/0wsFrmqFZG\r", "time": "2016-01-26T21:20:21", "lat": 43.14944, "id": 196757}
{"addr": "Rochester", "userid": 250319034, "long": -77.58622, "content": "Accident in #Rochester on Hwy 31 Both EB/WB at I 490 #traffic https://t.co/0wsFrmqFZG\r", "time": "2015-12-28T15:13:39", "lat": 43.14228, "id": 548794}
{"addr": "", "userid": 42640432, "long": -73.95252, "content": "Lane closures removed in #Nyc on The FDR Dr SB before 71st St  stop and go traffic back to The RFK-Triboro Br  delay of 5 mins #traffic\r", "time": "2015-12-12T00:45:17", "lat": 40.76448, "id": 695015}
{"addr": "", "userid": 42640432, "long": -73.89031, "content": "Accident  left lane blocked in #Bklyn on The Jackie Robinson Pkwy NB at Vermont Pl  stop and go traffic back to Bushwick Ave #traffic\r", "time": "2015-12-21T21:48:25", "lat": 40.68965, "id": 631833}
{"addr": "", "userid": 42640432, "long": -73.93118, "content": "Accident  left lane blocked in #TheBronx:OnTheMajorDeeganExpwy on I-87 NB at 138th St #traffic https://t.co/cLJ9IKsg5n\r", "time": "2016-01-27T22:21:55", "lat": 40.81358, "id": 185378}
{"addr": "", "userid": 15997164, "long": -73.97891732, "content": "Why I've sat in traffic for 40 minutes! \ud83d\ude43\ud83d\ude43\ud83d\ude43 @ Rockefeller Center https://t.co/7xtGymAj9v\r", "time": "2015-12-23T21:44:00", "lat": 40.75882475, "id": 606270}
{"addr": "", "userid": 42640432, "long": -73.93346, "content": "Accident cleared in #Nyc on The Harlem River Dr NB at G.W.B.  stop and go traffic back to 3rd Ave Br  delay of 5 mins #traffic\r", "time": "2016-01-29T20:16:33", "lat": 40.83833, "id": 157298}
{"addr": "", "userid": 42640432, "long": -73.92791, "content": "Incident cleared in #Queens:OnTheB.q.e. on I-278 EB approaching The Kosciuszko Brg  stop and go traffic back to The Williamsburg Br #traffic\r", "time": "2015-12-15T12:14:28", "lat": 40.72917, "id": 670351}
{"addr": "", "userid": 42640432, "long": -73.92791, "content": "Disabled truck in #Brooklyn on I-278 EB approaching The Kosciuszko Brg  stop and go traffic back to McGuiness Blvd  delay of 2 mins #traffic\r", "time": "2015-12-31T15:51:09", "lat": 40.72917, "id": 508372}
{"addr": "", "userid": 42640432, "long": -73.94896, "content": "Accident in #Nyc on The FDR Dr NB at 79th St #traffic https://t.co/cLJ9IKJQWV\r", "time": "2015-12-06T04:45:16", "lat": 40.76873, "id": 791535}
{"addr": "", "userid": 42640432, "long": -73.8819, "content": "Ramp restrictions in #Bronx on The Sheridan Xpwy NB at I-95 #traffic https://t.co/cLJ9IKJQWV\r", "time": "2016-01-03T23:04:18", "lat": 40.83534, "id": 467626}
{"addr": "", "userid": 42640432, "long": -73.84532, "content": "Accident in #Queens:OnTheBeltPkwy on Belt Pkwy WB after Cross Bay Blvd  stop and go traffic back to Lefferts Blvd  delay of 3 mins #traffic\r", "time": "2015-12-06T18:22:15", "lat": 40.66444, "id": 798193}
{"addr": "", "userid": 42640432, "long": -74.65994, "content": "Disabled truck in #Bedminster on I-78 WB east of X29 #traffic https://t.co/cLJ9IKJQWV\r", "time": "2016-01-23T18:17:35", "lat": 40.64358, "id": 238620}
{"addr": "", "userid": 42640432, "long": -73.95141, "content": "Fire department activity in #Kings on Ave U WB between Ocean Ave and Ocean Pkwy #traffic https://t.co/cLJ9IKsg5n\r", "time": "2016-01-14T23:39:12", "lat": 40.59937, "id": 331232}
{"addr": "Rochester", "userid": 250319034, "long": -77.68988, "content": "Accident with injuries in #Gates on Hwy 33a Both EB/WB at Howard Rd #traffic https://t.co/0wsFrmqFZG\r", "time": "2015-12-07T14:58:27", "lat": 43.13086, "id": 39489}
{"addr": "", "userid": 42640432, "long": -73.92258, "content": "Accident cleared in #Queens:OnTheB.q.e. on I-278 EB at The L.I.E.  stop and go traffic back to The Williamsburg Br  delay of 5 mins #traffic\r", "time": "2016-01-11T19:19:11", "lat": 40.73442, "id": 362410}
{"addr": "", "userid": 42640432, "long": -73.93725, "content": "Accident cleared in #Bklyn on Belt Pkwy EB after Knapp St  stop and go traffic back to Ocean Pkwy  delay of 3 mins #traffic\r", "time": "2015-12-16T19:04:45", "lat": 40.58595, "id": 665313}
{"addr": "Rochester", "userid": 250319034, "long": -77.5999, "content": "Accident in #Rochester on Hudson Ave Both NB/SB at Rt-104 #traffic https://t.co/0wsFrmqFZG\r", "time": "2016-01-04T15:51:58", "lat": 43.192, "id": 449218}
{"addr": "", "userid": 42640432, "long": -73.92791, "content": "Accident cleared in #Queens:OnTheB.q.e. on I-278 EB at The Kosciuszko Brg  stop and go traffic back to McGuiness Blvd  delay of 2 mins\r", "time": "2015-12-09T15:21:20", "lat": 40.72917, "id": 54847}
{"addr": "", "userid": 42640432, "long": -73.89899, "content": "Accident  two lanes blocked in #Queens:OnTheB.q.e. on I-278 EB at Queens Blvd  stop and go traffic back to The Manhattan Br #traffic\r", "time": "2015-12-11T21:01:52", "lat": 40.74065, "id": 75221}
{"addr": "Rochester", "userid": 250319034, "long": -77.57519, "content": "Accident in #Rochester on I-490 EB east of Culver Rd #traffic https://t.co/0wsFrm9588\r", "time": "2015-12-10T21:29:26", "lat": 43.14329, "id": 12568}
{"addr": "", "userid": 42640432, "long": -73.93346, "content": "Accident  two lanes blocked in #NewYork on The Harlem River Dr NB approaching G.W.B.  stop and go traffic back to 8th Ave  delay of 1 min\r", "time": "2016-01-13T17:22:24", "lat": 40.83833, "id": 339068}
{"addr": "Albany", "userid": 65620338, "long": -73.44521, "content": "Accident involving log truck in #FortAnn on US-4 Both EB/WB east of Rte 22 #traffic https://t.co/Lz3PqqCJy2\r", "time": "2016-01-28T12:45:13", "lat": 43.45762, "id": 165264}
{"addr": "", "userid": 42640432, "long": -73.88077, "content": "Accident  two lanes blocked on I-95 NB at The Sheridan Expwy #traffic https://t.co/cLJ9IKJQWV\r", "time": "2015-12-28T01:42:25", "lat": 40.83749, "id": 544234}
{"addr": "", "userid": 42640432, "long": -73.92444, "content": "Accident  two lanes blocked in #TheBronx:OnTheMajorDeeganExpwy on I-87 NB at Willis Ave #traffic https://t.co/cLJ9IKJQWV\r", "time": "2016-01-29T19:43:37", "lat": 40.80687, "id": 156880}
{"addr": "Syracuse", "userid": 250330008, "long": -76.11377, "content": "Closed due to accident in #Pulaski on I-81 NB near NY-13 #traffic https://t.co/MBQubGTSI5\r", "time": "2015-12-31T20:55:18", "lat": 43.55542, "id": 513098}
{"addr": "Rochester", "userid": 250319034, "long": -77.65955, "content": "Accident in #Rochester on Mt Read Blvd Both NB/SB at I 490 #traffic https://t.co/0wsFrmqFZG\r", "time": "2016-01-14T22:21:05", "lat": 43.15722, "id": 330219}
{"addr": "", "userid": 42640432, "long": -73.89037, "content": "Incident cleared in #TheBronx:OnTheBrucknerExpy on I-278 EB at Sheridan Expwy #traffic https://t.co/cLJ9IKJQWV\r", "time": "2015-12-12T17:36:04", "lat": 40.82002, "id": 704282}
{"addr": "Rochester", "userid": 250319034, "long": -77.62161, "content": "Accident in #Rochester on Jay St Both EB/WB at State St #traffic https://t.co/0wsFrmqFZG\r", "time": "2016-01-12T15:36:46", "lat": 43.16322, "id": 350142}
{"addr": "", "userid": 42640432, "long": -73.92321, "content": "Accident  right lane blocked in #AreaOfTheRfkTriboroBrQueens on I-278 WB between The RFK and The Grand Central Pkwy at 31st St #traffic\r", "time": "2015-12-09T15:28:06", "lat": 40.77524, "id": 54927}
{"addr": "", "userid": 42640432, "long": -73.96079, "content": "Closed due to accident in #Bergen on The G.W.B. Upper Level SB between Palisades Pkwy and The Tolls #traffic https://t.co/cLJ9IKJQWV\r", "time": "2015-12-22T16:54:44", "lat": 40.85331, "id": 615105}
{"addr": "", "userid": 42640432, "long": -73.74419, "content": "Accident  two lanes blocked in #Queens on The L.I.E. EB between x30 and x32  stop and go traffic back to X28  delay of 6 mins #traffic\r", "time": "2016-01-20T15:40:26", "lat": 40.75369, "id": 277262}
{"addr": "", "userid": 42640432, "long": -73.98465, "content": "Accident cleared in #Nyc on The FDR Dr NB at The Manhattan Br  stop and go traffic back to The Brooklyn BR  delay of 2 mins #traffic\r", "time": "2016-01-15T23:15:24", "lat": 40.7105, "id": 318141}
{"addr": "New York", "userid": 14411403, "long": -74.0059729, "content": "New York woman charged with loaded handgun after Jersey City traffic stop https://t.co/13X74sbaUq\r", "time": "2015-12-08T01:55:43", "lat": 40.7142691, "id": 759607}
{"addr": "", "userid": 42640432, "long": -73.89899, "content": "Accident  center lane blocked in #Queens:OnTheB.q.e. on I-278 EB after Queens Blvd  stopped traffic back to McGuiness Blvd  delay of 30 mins\r", "time": "2016-01-20T13:46:33", "lat": 40.74065, "id": 276144}
{"addr": "", "userid": 42640432, "long": -73.94383, "content": "Accident  right lane blocked in #Nyc on The FDR Dr SB at 96th St  stop and go traffic back to The RFK-Triboro Br  delay of 2 mins #traffic\r", "time": "2015-12-10T20:02:07", "lat": 40.78285, "id": 11211}
{"addr": "", "userid": 42640432, "long": -74.75452, "content": "Accident in #Tewksbury on I-78 WB between X24-Rt-523 and X20 #traffic https://t.co/cLJ9IKJQWV\r", "time": "2015-12-11T23:21:45", "lat": 40.65061, "id": 727405}
{"addr": "", "userid": 42640432, "long": -73.94383, "content": "Accident  left lane blocked in #Nyc on The FDR Dr NB at 96th St #traffic https://t.co/cLJ9IKJQWV\r", "time": "2016-01-16T04:45:00", "lat": 40.78285, "id": 296276}
{"addr": "Albany", "userid": 65620338, "long": -73.84451, "content": "Accident reported in #Albany on I-90 EB at Exit 24 #traffic https://t.co/Lz3PqqCJy2\r", "time": "2015-12-07T13:37:07", "lat": 42.69981, "id": 38488}
{"addr": "Philadelphia", "userid": 249854777, "long": -74.48678, "content": "Closed due to accident in #PembertonTwp on Rt-70 Both EB/WB between CR-530 and Spg Lk BLVD #traffic https://t.co/BtegSRlPfO\r", "time": "2016-01-21T15:45:36", "lat": 39.94951, "id": 267009}
{"addr": "", "userid": 42640432, "long": -73.95252, "content": "Left lane blocked in #Nyc on The FDR Dr SB at 71st St  stop and go traffic back to 79th St  delay of 1 min #traffic https://t.co/cLJ9IKJQWV\r", "time": "2016-01-01T10:10:03", "lat": 40.76448, "id": 491363}
{"addr": "", "userid": 42640432, "long": -73.98996, "content": "Bridge closed in #AreaOfLowerTheEastRiverCrossingsBklyn on The Brooklyn Brg WB between The Brooklyn Side and The Manhattan Side #traffic\r", "time": "2016-01-24T05:12:45", "lat": 40.70072, "id": 215401}
{"addr": "", "userid": 42640432, "long": -73.87353, "content": "Accident  two lanes blocked in #Bronx on The Bronx River Pkwy SB at 177th St  stop and go traffic back to Allerton Ave  delay of 4 mins\r", "time": "2016-01-20T16:29:05", "lat": 40.83688, "id": 277809}
{"addr": "", "userid": 42640432, "long": -73.87107, "content": "Accident on The L.I.E. EB at x19 #traffic https://t.co/cLJ9IKJQWV\r", "time": "2016-01-02T23:06:02", "lat": 40.73195, "id": 481258}
{"addr": "", "userid": 42640432, "long": -73.91411, "content": "Accident cleared in #TheBronx:OnTheCrossBronxExpwy on I-95 NB at Jerome Ave  stop and go traffic back to The G.W.B.  delay of 2 mins\r", "time": "2015-12-12T20:51:04", "lat": 40.8451, "id": 708169}
{"addr": "", "userid": 42640432, "long": -74.65994, "content": "Accident  right lane blocked in #Bedminster on I-78 WB west of X29  stop and go traffic back to X33  delay of 10 mins #traffic\r", "time": "2016-01-29T13:53:36", "lat": 40.64358, "id": 152439}
{"addr": "", "userid": 42640432, "long": -73.7793, "content": "Accident in #Queens on The Cross Island Pkwy NB before Bell Blvd  stop and go traffic back to Northern BL  delay of 5 mins #traffic\r", "time": "2016-01-19T18:48:42", "lat": 40.78892, "id": 288898}
{"addr": "", "userid": 42640432, "long": -73.91887, "content": "Bridge closed in #AreaOfTheRfkTriboroBrQueens on I-278 WB between The RFK and The RFK #traffic https://t.co/cLJ9IKJQWV\r", "time": "2016-01-24T05:17:11", "lat": 40.79891, "id": 215430}
{"addr": "", "userid": 42640432, "long": -73.79285, "content": "Accident cleared in #Queens on The L.I.E. WB at X25  stop and go traffic back to x34  delay of 13 mins #traffic https://t.co/cLJ9IKsg5n\r", "time": "2015-12-17T23:41:45", "lat": 40.73925, "id": 654003}
{"addr": "", "userid": 42640432, "long": -73.93346, "content": "Left lane closed in #NewYork on The Harlem River Dr SB between G.W.B. and 8th Ave  stop and go traffic back to Dyckman St  delay of 4 mins\r", "time": "2016-01-02T00:02:46", "lat": 40.83833, "id": 468357}
{"addr": "Rochester", "userid": 250319034, "long": -77.6204, "content": "Accident in #Rochester on Mt Hope Av Both NB/SB at Lattimore Rd #traffic https://t.co/0wsFrmqFZG\r", "time": "2015-12-23T22:01:43", "lat": 43.1187, "id": 606490}
{"addr": "", "userid": 42640432, "long": -73.89756, "content": "Accident cleared in #Bronx on I-95 SB at 3rd Ave  stop and go traffic back to Bruckner Interchange  delay of 7 mins #traffic\r", "time": "2016-01-05T14:02:32", "lat": 40.84393, "id": 436778}
{"addr": "", "userid": 42640432, "long": -73.79016, "content": "Ramp restrictions in #Bayside on I-295 SB at Cross Island Pkwy  stop and go traffic back to The Throgs Neck Br  delay of 2 mins #traffic\r", "time": "2015-12-22T20:37:37", "lat": 40.78796, "id": 617909}
{"addr": "New York", "userid": 287453334, "long": -73.97891732, "content": "This is the one time being stuck in traffic isn't that bad...\ud83c\udf84\ud83c\udf84\ud83c\udf84 @ Rockefeller Center https://t.co/x9zcpdrFGA\r", "time": "2015-12-22T23:12:50", "lat": 40.75882475, "id": 619896}
{"addr": "", "userid": 42640432, "long": -73.8172, "content": "Disabled vehicle  center lane blocked in #Queens on I-678 SB at Hillside Ave  stop and go traffic back to Horace Harding BL  delay of 5 mins\r", "time": "2016-01-21T23:20:29", "lat": 40.70403, "id": 270572}
{"addr": "", "userid": 42640432, "long": -73.98969, "content": "Accident cleared in #NewYork on I-278 EB at Brooklyn Brg  delay of 4 mins #traffic https://t.co/cLJ9IKJQWV\r", "time": "2015-12-08T21:55:45", "lat": 40.70147, "id": 108036}
{"addr": "New York", "userid": 1697176273, "long": -73.98773513, "content": "#NYPD's trafficking in nuts? https://t.co/YTfxn5Ih4N\r", "time": "2015-12-06T01:55:33", "lat": 40.75136713, "id": 789083}
{"addr": "Albany", "userid": 65620338, "long": -73.73324, "content": "Accident cleared in #Albany on I-787 NB near I-90 #traffic https://t.co/Lz3PqqCJy2\r", "time": "2015-12-17T21:07:48", "lat": 42.66732, "id": 651728}
{"addr": "", "userid": 42640432, "long": -73.75691, "content": "Accident  two lanes blocked in #Queens on The Cross Island Pkwy SB at Northern BL  stop and go traffic back to The Throgs Neck BR #traffic\r", "time": "2015-12-04T23:04:31", "lat": 40.76228, "id": 822215}
{"addr": "", "userid": 42640432, "long": -73.88758, "content": "Accident cleared in #TheBronx:OnTheDeeganExpwy on I-87 NB at Mosholu Pkwy  stop and go traffic back to 179th St  delay of 6 mins #traffic\r", "time": "2015-12-29T21:04:23", "lat": 40.88969, "id": 540569}
{"addr": "Albany", "userid": 65620338, "long": -73.83023, "content": "Accident. right shoulder blocked in #Albany on I-90 WB near Washington Ave  slow traffic back to Everett Rd  delay of 2 mins #traffic\r", "time": "2015-12-23T22:07:48", "lat": 42.69411, "id": 606549}
{"addr": "", "userid": 3013069332, "long": -74.0064, "content": "New York is covered in snow! #snowoutside #snowstorm #notraffic #cold #winter #blizzard\u2026 https://t.co/4p032MwPUj\r", "time": "2016-01-24T00:13:28", "lat": 40.7142, "id": 211535}
{"addr": "", "userid": 42640432, "long": -74.04538, "content": "Accident in #NorthBergen on The Lincoln  Tunl WB at Rt-3 And Bus Lanes #traffic https://t.co/cLJ9IKJQWV\r", "time": "2016-01-22T10:09:28", "lat": 40.7771, "id": 251453}
{"addr": "Albany", "userid": 65620338, "long": -73.83539, "content": "Accident. right shoulder blocked in #Albany on I-90 WB at Exit 1 - Northway 87  stop and go traffic back to Corporate Woods Boulevard\r", "time": "2015-12-09T22:05:32", "lat": 42.69512, "id": 756204}
{"addr": "Rochester", "userid": 250319034, "long": -77.5717, "content": "Accident in #Rochester on Culver Rd Both NB/SB north of E Ave #traffic https://t.co/0wsFrmqFZG\r", "time": "2016-01-13T18:43:47", "lat": 43.14951, "id": 340101}
{"addr": "", "userid": 42640432, "long": -73.95252, "content": "Accident  left lane blocked in #Nyc on The FDR Dr SB at 71st St  stop and go traffic back to The RFK-Triboro Br  delay of 5 mins #traffic\r", "time": "2016-01-14T18:18:49", "lat": 40.76448, "id": 327142}
{"addr": "", "userid": 558769378, "long": -73.9884415, "content": "#oneworldobservatory #oneworldtradecenter #upabove #nyc #traffic #downbelow #coolapp\u2026 https://t.co/FZKJV7yfLa\r", "time": "2016-01-06T00:07:32", "lat": 40.6920204, "id": 419678}
{"addr": "", "userid": 42640432, "long": -73.99912, "content": "Right lane closed in #Bklyn:OnTheB.q.e. on I-278 EB near Atlantic Ave  stop and go traffic back to The Prospect Expwy  delay of 4 mins\r", "time": "2016-01-13T10:41:31", "lat": 40.69155, "id": 335648}
{"addr": "Albany", "userid": 65620338, "long": -73.82494, "content": "Vehicle fire in #WestCoxsackie on Thruway SB between US-9W and CR-23b #traffic https://t.co/Lz3PqqCJy2\r", "time": "2015-12-11T19:09:03", "lat": 42.39372, "id": 723086}
{"addr": "", "userid": 42640432, "long": -73.89899, "content": "Accident cleared in #Queens:OnTheB.q.e. on I-278 EB at Queens Blvd #traffic https://t.co/cLJ9IKsg5n\r", "time": "2015-12-13T07:52:34", "lat": 40.74065, "id": 685815}
{"addr": "", "userid": 42640432, "long": -73.9108, "content": "M.T.A. N.Y.C. Subways:  Q Train normal services resumed between Astoria - Ditmars Boulevard and Stillwell Ave. #traffic\r", "time": "2016-01-25T01:07:31", "lat": 40.77618, "id": 199712}
{"addr": "", "userid": 42640432, "long": -73.90299, "content": "Accident cleared in #Bronx:OnTheBrucknerExpwy on I-278 WB at 138th St  stop and go traffic back to Hunts Pt Drawbridge  delay of 3 mins\r", "time": "2015-12-11T18:42:25", "lat": 40.80938, "id": 73000}
{"addr": "", "userid": 42640432, "long": -73.87353, "content": "Incident cleared in #Bronx on The Bronx River Pkwy SB at 177th St  stop and go traffic back to Gun Hl Rd  delay of 6 mins #traffic\r", "time": "2015-12-05T23:46:47", "lat": 40.83688, "id": 32019}
{"addr": "", "userid": 42640432, "long": -73.96752, "content": "Two lanes blocked in #Nyc on 3rd Ave NB approaching E 57th St  stop and go traffic back to E 51st St #traffic https://t.co/cLJ9IKJQWV\r", "time": "2016-01-26T19:01:45", "lat": 40.76025, "id": 195146}
{"addr": "", "userid": 42640432, "long": -73.99602, "content": "Disabled vehicle  right lane blocked in #Bklyn:OnTheGowanusExpwy on I-278 WB at The Prospect Expwy  stop and go traffic back to Wythe Ave\r", "time": "2016-01-20T23:46:26", "lat": 40.66595, "id": 283154}
{"addr": "Syracuse", "userid": 250330008, "long": -76.1106, "content": "Disabled vehicle in #Lafayette on I-81 SB between Rte 11 and Rte 20 #traffic https://t.co/MBQubGTSI5\r", "time": "2016-01-28T11:26:11", "lat": 42.89443, "id": 164891}
{"addr": "", "userid": 42640432, "long": -73.8987, "content": "Disabled vehicle  center lane blocked in #Bklyn on Belt Pkwy EB after The Mill Basin Draw Brg  stop and go traffic back to Ford St #traffic\r", "time": "2015-12-07T21:59:20", "lat": 40.6047, "id": 45376}
{"addr": "", "userid": 42640432, "long": -73.95027, "content": "Accident  left lane blocked in #Nyc:OnTheWestSideHwy on NY RT-9A NB at 158th St  stop and go traffic back to 72nd St  delay of 9 mins\r", "time": "2015-12-21T22:21:51", "lat": 40.83254, "id": 632354}
{"addr": "", "userid": 42640432, "long": -73.96803, "content": "Road cleared in #NewYork on 56th St EB between 3rd Ave and 2nd Ave #traffic https://t.co/cLJ9IKJQWV\r", "time": "2015-12-16T23:30:53", "lat": 40.75958, "id": 668995}
{"addr": "Albany", "userid": 65620338, "long": -73.74442, "content": "Accident. right shoulder blocked in #Albany on I-787 SB at US-9 #traffic https://t.co/Lz3PqqCJy2\r", "time": "2015-12-17T21:03:15", "lat": 42.65514, "id": 651672}
{"addr": "", "userid": 42640432, "long": -73.90272, "content": "Accident  left lane blocked in #Bronx on I-95 SB at Webster Ave  stopped traffic back to Castle Hl Ave  delay of 26 mins #traffic\r", "time": "2015-12-29T00:10:17", "lat": 40.84454, "id": 530295}
{"addr": "", "userid": 42640432, "long": -73.95763, "content": "Disabled vehicle  center lane blocked in #Nyc on The FDR Dr SB approaching 63rd St  stop and go traffic back to 71st St  delay of 1 min\r", "time": "2015-12-11T10:40:12", "lat": 40.75987, "id": 67442}
{"addr": "Albany", "userid": 65620338, "long": -73.74869, "content": "Accident. right shoulder blocked in #Albany on I-90 EB at US-9  stop and go traffic back to Rte 85  delay of 7 mins #traffic\r", "time": "2015-12-17T21:42:38", "lat": 42.66974, "id": 652187}
{"addr": "", "userid": 42640432, "long": -73.88758, "content": "Reopened in #TheBronx:OnTheDeeganExpwy on I-87 NB at Mosholu Pkwy  stopped traffic back to Cross Bronx  delay of 41 mins #traffic\r", "time": "2015-12-24T18:54:48", "lat": 40.88969, "id": 591004}
{"addr": "Greensboro", "userid": 28918980, "long": -74.0112559, "content": "Strike disrupts rail traffic in Belgium - Daily Item https://t.co/IpIiiulm57 #business https://t.co/ePnfcpOtbG\r", "time": "2016-01-06T10:26:08", "lat": 40.70685703, "id": 423423}
{"addr": "", "userid": 42640432, "long": -73.90454, "content": "Incident cleared in #AreaOfTheRfkTriboroBrQueens on The Grand Central Pkwy EB at The B.Q.E. #traffic https://t.co/cLJ9IKJQWV\r", "time": "2016-01-02T21:12:49", "lat": 40.76807, "id": 479484}
{"addr": "", "userid": 42640432, "long": -73.83756, "content": "Accident cleared in #Queens on The L.I.E. WB at X22  stop and go traffic back to x30  delay of 11 mins #traffic https://t.co/cLJ9IKJQWV\r", "time": "2015-12-11T22:22:15", "lat": 40.74339, "id": 726312}
{"addr": "", "userid": 42640432, "long": -73.99415, "content": "Accident  two lanes blocked in #Nyc on NY RT-9A SB approaching 56th  stop and go traffic back to 96th St  delay of 4 mins #traffic\r", "time": "2015-12-11T11:47:21", "lat": 40.77151, "id": 717330}
{"addr": "", "userid": 42640432, "long": -73.91411, "content": "Accident  right lane blocked in #TheBronx:OnTheCrossBronxExpwy on I-95 NB at Jerome Ave  stopped traffic back to The G.W.B. #traffic\r", "time": "2015-12-07T11:41:29", "lat": 40.8451, "id": 37518}
{"addr": "Syracuse", "userid": 250330008, "long": -76.40155, "content": "Accident w /  injuries in #Elbridge on Rte 5 Both EB/WB between Fikes Rd and Bennetts Corners Rd #traffic https://t.co/MBQubGTSI5\r", "time": "2016-01-22T14:44:32", "lat": 43.03761, "id": 253123}
{"addr": "", "userid": 42640432, "long": -73.92791, "content": "Accident cleared in #Queens:OnTheB.q.e. on I-278 WB at The Kosciuszko Brg  stop and go traffic back to The L.I.E.  delay of 1 min #traffic\r", "time": "2015-12-09T21:53:21", "lat": 40.72917, "id": 60225}
{"addr": "Philadelphia", "userid": 249854777, "long": -74.46683, "content": "Accident  traffic being directed around accident area in #PortRepublic on US-9 Both NB/SB near Garden State Pkwy #traffic\r", "time": "2015-12-15T22:32:31", "lat": 39.54722, "id": 678484}
{"addr": "", "userid": 42640432, "long": -73.92321, "content": "Accident cleared in #AreaOfTheRfkTriboroBrQueens on I-278 EB at The RFK  stop and go traffic back to The Grand Central Pkwy at 31st St\r", "time": "2015-12-25T23:23:11", "lat": 40.77524, "id": 581850}
{"addr": "", "userid": 42640432, "long": -73.86861, "content": "Accident in #Queens on The Jackie Robinson Pkwy NB at Forest Park Dr  stopped traffic back to Bushwick Ave  delay of 24 mins #traffic\r", "time": "2016-01-30T23:38:14", "lat": 40.69972, "id": 146275}
{"addr": "Rochester", "userid": 250319034, "long": -77.5762, "content": "Accident in #Rochester on Clifford Ave Both EB/WB at N Goodman St #traffic https://t.co/0wsFrmqFZG\r", "time": "2016-01-13T15:49:09", "lat": 43.1758, "id": 337996}
{"addr": "", "userid": 42640432, "long": -73.93118, "content": "Accident  left lane blocked in #TheBronx:OnTheMajorDeeganExpwy on I-87 SB at 138th St #traffic https://t.co/cLJ9IKJQWV\r", "time": "2016-01-20T02:50:43", "lat": 40.81358, "id": 273064}
{"addr": "", "userid": 42640432, "long": -73.9313, "content": "Incident cleared in #TheBronx:OnTheMajorDeeganExpwy on I-87 SB at Yankee Stadium #traffic https://t.co/cLJ9IKJQWV\r", "time": "2015-12-16T15:57:27", "lat": 40.82829, "id": 662629}
{"addr": "", "userid": 42640432, "long": -73.92684, "content": "Closed in #NewYork on Seaman Ave Both NB/SB at Cumming St #traffic https://t.co/cLJ9IKJQWV\r", "time": "2016-01-30T18:07:09", "lat": 40.86707, "id": 140771}
{"addr": "", "userid": 42640432, "long": -74.03174, "content": "Accident  right lane blocked on The Verrazano Brg Upper Level Inbound approaching Bklyn Side #traffic https://t.co/cLJ9IKJQWV\r", "time": "2015-12-07T00:53:26", "lat": 40.61069, "id": 33140}
{"addr": "Staten Island", "userid": 163485900, "long": -74.24806008, "content": "I am stuck in this traffic trying to get into Staten Island #morning #traffic #problems\u2026 https://t.co/wmY9FOfhVp\r", "time": "2015-12-11T12:56:06", "lat": 40.52466844, "id": 68190}
{"addr": "", "userid": 42640432, "long": -73.96637, "content": "Disabled vehicle  right lane blocked on NY RT-9A NB at 125th St #traffic https://t.co/cLJ9IKJQWV\r", "time": "2016-01-16T02:25:33", "lat": 40.81175, "id": 294747}
{"addr": "", "userid": 23440137, "long": -74.0064, "content": "Haha. The cause of the traffic jam. Construction and now the\u2026 https://t.co/lCi2tfN7yJ\r", "time": "2015-12-09T19:32:53", "lat": 40.7142, "id": 753987}
{"addr": "", "userid": 42640432, "long": -73.7793, "content": "Accident reported in #Queens on The Cross Island Pkwy SB at Bell Blvd #traffic https://t.co/cLJ9IKJQWV\r", "time": "2016-01-31T23:01:27", "lat": 40.78892, "id": 131019}
{"addr": "", "userid": 42640432, "long": -73.90457, "content": "Accident  two lanes blocked in #TheBronx:OnTheDeeganExpwy on I-87 NB at W 230th St  stopped traffic back to Yankee Stadium  delay of 40 mins\r", "time": "2015-12-17T21:46:32", "lat": 40.87649, "id": 652251}
{"addr": "", "userid": 42640432, "long": -73.97035, "content": "Disabled truck in #AreaOfHudsonRiverCrossingsGwbExpressNj on The G.W.B. NB before The Upper Level Tolls  stopped traffic back to X70\r", "time": "2016-01-28T12:44:48", "lat": 40.85532, "id": 165260}
{"addr": "", "userid": 42640432, "long": -73.90272, "content": "Accident in #Bronx on I-95 SB at Webster Ave  stopped traffic back to Castle Hl Ave  delay of 26 mins #traffic https://t.co/cLJ9IKJQWV\r", "time": "2015-12-29T01:45:39", "lat": 40.84454, "id": 531579}
{"addr": "", "userid": 42640432, "long": -73.86004, "content": "Incident cleared in #Bronx on I-95 SB at Castle Hl Ave  stop and go traffic back to E Tremont Ave  delay of 4 mins #traffic\r", "time": "2015-12-28T22:31:08", "lat": 40.83316, "id": 554535}
{"addr": "Rochester", "userid": 250319034, "long": -77.60117, "content": "Accident in #Rochester on I-490 WB at Clinton Ave  stop and go traffic back to Rt-31  delay of 2 mins #traffic https://t.co/0wsFrmqFZG\r", "time": "2015-12-09T22:05:26", "lat": 43.14686, "id": 60413}
{"addr": "", "userid": 42640432, "long": -73.82452, "content": "Accident  two lanes blocked in #Bronx on I-95 SB at E Tremont Ave  stopped traffic back to Bartow Ave  delay of 24 mins #traffic\r", "time": "2016-01-04T18:49:06", "lat": 40.83611, "id": 451199}
{"addr": "", "userid": 42640432, "long": -73.94896, "content": "Left lane blocked in #Nyc on The FDR Dr SB south of 79th St  stop and go traffic back to The RFK-Triboro Br  delay of 4 mins #traffic\r", "time": "2015-12-09T20:14:59", "lat": 40.76873, "id": 58751}
