157
163
164
165
166
168
169
170
171
172
173
175
176
177
178
179
180
181
182
186
187
188
192
211
223
224
229
233
247
248
253
274
291
292
301
308
311
319
326
328
338
339
359
360
361
366
368
370
398
399
400
401
403
404
406
407
409
410
412
413
414
415
416
420
421
426
427
430
431
432
433
434
435
436
437
438
445
446
452
466
467
472
473
474
475
476
478
479
480
481
495
500
501
502
503
504
505
506
507
508
509
510
511
512
514
516
517
519
521
522
523
524
525
526
527
528
529
530
531
535
536
537
540
541
542
543
544
545
547
548
550
551
552
554
558
667
690
691
692
715
716
717
718
719
720
721
722
725
731
732
733
734
735
736
739
740
741
789
790
791
794
795
798
800
801
802
803
805
806
807
808
809
813
814
820
821
822
827
828
838
840
841
845
846
847
869
870
893
895
898
899
